%!PS-Adobe-3.0 EPSF-3.0
%%Title: caminantecomplejocinematica.eps
%%Creator: XCircuit v3.7 rev40
%%CreationDate: Fri Mar  8 15:39:42 2013
%%Pages: 1
%%BoundingBox: 68 68 889 521
%%DocumentNeededResources: font Helvetica Times-Roman 
%%EndComments
%%BeginProlog
%
%  PostScript prolog for output from xcircuit
%  Version: 3.7
%
%  Electrical circuit (and otherwise general) drawing program
%
%  Written by Tim Edwards 8/5/93--11/1/10  (tim.edwards@multigig.com)
%  The Johns Hopkins University (1993-2004)
%  MultiGiG, Inc. (2004-present)
%
%%BeginResource: procset XCIRCproc 3.7 2
%
% supporting definitions --- these are the primary xcircuit types.

/XCIRCsave save def
/topmat matrix currentmatrix def

/fontslant { /slant exch def [1 0 slant 1 0 0] 
    exch findfont exch makefont dup length dict /ndict exch def
    { 1 index /FID ne { ndict 3 1 roll put } { pop pop } ifelse } forall
    ndict definefont pop} def
/ul { dup type /stringtype eq showflag 1 eq and { gsave 
   currentpoint topmat setmatrix 0 0 moveto 2 index stringwidth pop (_)
   false charpath flattenpath pathbbox grestore exch pop 1 index
   sub setlinewidth exch pop currentpoint 3 -1 roll add moveto 0
   rlineto stroke moveto } if } def
/ol { dup type /stringtype eq showflag 1 eq and { gsave gsave
   currentpoint topmat setmatrix 2 index stringwidth pop 3 index
   true charpath flattenpath pathbbox grestore exch pop
   exch pop topmat setmatrix (_) true charpath pathbbox grestore
   exch pop 1 index sub setlinewidth exch pop currentpoint
   exch 4 1 roll exch sub add moveto pop 0 rlineto stroke
   moveto } if } def
/stW { gsave currentpoint newpath moveto true charpath flattenpath
	pathbbox pop exch pop sub grestore } def
/Ts {mark Tabs aload pop counttomark 1 add array astore /Tabs exch def Tabs
	0 currentpoint pop put} def
/Tbn {mark Tabs aload pop counttomark dup 2 add 1 roll cleartomark 1 sub} def
/Tb { 0 1 Tbn {Tabs exch get dup currentpoint pop lt
	{currentpoint exch pop moveto exit} {pop} ifelse } for } def
/Tf { Tbn -1 0 {Tabs exch get dup currentpoint pop gt
	{currentpoint exch pop moveto exit} {pop} ifelse } for } def
/qS { (aa) stW (a a) stW sub 4 div 0 Kn } def
/hS { qS qS } def
/pspc 0 def
/cf0 { scalefont setfont } bind def
/Kn { dup kY add /kY exch def rmoveto } bind def
/ss { /fscale fscale 0.67 mul def currentfont 0.67 cf0 0 fscale0 fscale mul
	0.33 mul neg Kn} def
/Ss { /fscale fscale 0.67 mul def currentfont 0.67 cf0 0 fscale0 fscale mul
	0.67 mul Kn } def
/ns { 0 kY neg Kn /kY 0 def /fscale 1.0 def xfont0 1.0 cf0 } def
/CR { ns 0 /Bline Bline fscale0 neg add def Bline moveto } def
/cf { dup type /realtype ne {1.0} if exch findfont exch kY 0 eq
	{ 40 mul dup /fscale0 exch def cf0 /xfont0 currentfont def}
	{fscale0 mul fscale mul cf0} ifelse } def
/ctmk { counttomark dup 2 add -1 roll pop } bind def
/label { gsave translate 0 0 moveto dup scale neg /rotval exch def
	/just exch def just 384 and 0 gt {/mshow {pop} def} {/mshow {show}
	def} ifelse just 16 and 0 gt {gsave rotval rotate 0 1 dtransform
	gsave pagemat setmatrix idtransform exch grestore 1 0 dtransform
	gsave pagemat setmatrix idtransform exch grestore dup abs 1e-9 lt
	{pop mul 0 gt} {3 1 roll pop pop 0 lt} ifelse grestore {-1 /rotval
	rotval neg def /just just dup 3 and 1 ne {3 xor} if def} {1} ifelse
	exch -1e-9 lt {-1 /rotval rotval neg def /just just dup 12 and
	4 ne {12 xor} if def} {1} ifelse scale } if /showflag 0 def
	/fspc pspc def /Bline 0 def /Tabs 0 array def /fscale 1.0 def
	/kY 0 def gsave dup 1 add copy 0 exch 1 0 dtransform exch atan rotate
	{exch dup type /stringtype eq {true charpath flattenpath} {dup type
	/arraytype eq {exec} {12 string cvs true charpath flattenpath} ifelse}
	ifelse} repeat pop pathbbox grestore 3 -1 roll pop 3 1 roll just
	1 and 0 gt {just 2 and 0 gt {exch pop neg fspc sub} {exch sub 0.5
	mul neg} ifelse} {pop neg fspc add} ifelse exch Bline exch just 4
	and 0 gt {just 8 and 0 gt {exch pop neg fspc sub} {add 0.5 mul neg}
	ifelse} {pop neg fspc add} ifelse rotval rotate Kn currentpoint
	translate /showflag 1 def /Bline 0 def /Tabs 0 array def /fscale
	1.0 def /kY 0 def {dup type /stringtype eq {mshow} {dup type
	/arraytype eq {exec} {12 string cvs mshow} ifelse} ifelse} repeat
	grestore endclip} def
/pinlabel { 4 index 32 and 0 ne hlevel 0 eq or { /pspc 10 def label
	/pspc 0 def } { pop pop pop pop pop {pop} repeat } ifelse } def
/pinglobal { pinlabel } def
/infolabel { pinlabel } def
/graphic { gsave 4 index cvx exec /DataSource get resetfile translate 0 0
	moveto neg rotate dup scale cvx exec image grestore endclip} def

/scb { setrgbcolor } bind def  /sce { defColor aload pop scb } bind def
/cRedef {/defColor currentcolor 3 array astore def} def
/begingate {dup type /dicttype ne {1 dict} if begin	% default params
	dup type /dicttype ne {1 dict} if begin		% instanced params
	/hlevel hlevel 1 add def /defColor currentcolor sce 3 array astore
	def gsave sce translate 0 0 moveto neg rotate dup type /nametype
	eq not { dup abs currentlinewidth exch div setlinewidth } { pop }
	ifelse dup abs scale clipped 1 and 1 eq {/clipped clipped 1 add def}
	if} bind def
/endgate { /hlevel hlevel 1 sub def grestore defColor aload pop cRedef
	scb end end endclip} bind def

/hlevel 0 def
/endclip {clipped 1 and 1 eq {grestore /clipped clipped 1 sub def} if} def
/tmpa [1 0 0 1 0 0] def
/gar {8 8 true tmpa {<c0 c0 00 00 0c 0c 00 00>} imagemask} bind
{8 8 true tmpa {<30 70 60 02 03 07 06 20>} imagemask} bind
{8 8 true tmpa {<0c 1e 1e 0c c0 e1 e1 c0>} imagemask} bind
{8 8 true tmpa {<0f 0f 0f 0f f0 f0 f0 f0>} imagemask} bind
{8 8 true tmpa {<3f f3 e1 e1 f3 3f 1e 1e>} imagemask} bind
{8 8 true tmpa {<df cf 8f 9f fd fc f8 f9>} imagemask} bind
{8 8 true tmpa {<ff 3f 3f ff ff f3 f3 ff>} imagemask} bind 7 array astore def
/ppaint { gsave clip tmpa dup setmatrix pathbbox neg exch neg 4 2 roll
  neg 4 -1 roll 2 copy gt {exch} if 8 div ceiling 8 mul 4 2 roll neg 2 copy
  gt {exch} if 8 div ceiling 8 mul 3 -1 roll -8 5 -1 roll
  { 3 index exch 5 exch put dup -8 3 index { 3 index
  exch 4 exch put 3 index exec } for } for pop pop pop pop grestore } bind def
/setstyles {
  currentlinewidth mul setlinewidth /style exch def style 2048 and 0 gt
  clipped 1 and 0 eq and {clip newpath /clipped clipped 1 add def} {
  style 1 and 0 gt not {closepath} if
  style 1024 and 0 gt {2 setlinecap} if
  style 2 and 0 gt {currentlinewidth 4 mul dup 2 array astore 0 setdash} if
  style 4 and 0 gt {0.5 currentlinewidth 4 mul 2 array astore 0 setdash} if
  gsave style 16 and 0 gt { style 224 and -5 bitshift style 256 and 0 gt {
  7 exch sub 8 div dup 1 exch sub currentrgbcolor 3 array astore
  {3 copy mul add 4 1 roll pop} forall pop pop setrgbcolor eofill}
  {dup 7 lt {gar exch get ppaint} {pop eofill} ifelse} ifelse}
  {style 256 and 0 gt {1 setgray eofill} if} ifelse grestore style 8 and 0 gt 
  style 512 eq or {newpath} {stroke} ifelse grestore endclip} ifelse} def     

/addtoy {exch dup dup 2 mul 3 add 1 roll -1 1 { 4 1 roll dup 4 1 roll add
	4 -1 roll 2 mul 1 add index 2 mul 2 add 2 roll} for pop} def
/addtoy1 {1 exch addtoy pop} def
/addtoy3 {3 exch addtoy pop} def
/addtoy4 {4 exch addtoy pop} def
/addtox {exch dup dup 2 mul 3 add 1 roll -1 1 { 4 1 roll dup 4 1 roll 3 -1 roll
	add exch 4 -1 roll 2 mul 1 add index 2 mul 2 add 2 roll} for pop} def
/addtox1 {1 exch addtox pop} def
/addtox3 {3 exch addtox pop} def
/addtox4 {4 exch addtox pop} def
/polygon { gsave /num exch def moveto num 1 sub {lineto} repeat setstyles } def
/xcarc   { gsave newpath arc setstyles } def
/elb { matrix currentmatrix 7 -1 roll 7 -1 roll translate 5 1 roll 4 -1 roll
	3 index div 1 scale } def
/ele { 0 4 1 roll 0 4 1 roll } bind def
/ellipse { gsave elb newpath ele arc setmatrix setstyles } def
/pellip  { elb ele arc setmatrix } def
/nellip  { elb ele arcn setmatrix } def
/spline  { gsave moveto curveto setstyles } def
/polyc   { {lineto} repeat } bind def
/beginpath { gsave moveto } bind def
/endpath { setstyles } bind def
/bop	 { 1 setlinecap 0 setlinejoin 6 setmiterlimit 0 0 0 scb cRedef
	/clipped 0 def} def
/psinsertion {/PSobj save def /showpage {} def /setpagedevice {pop} def bop
	rotate translate dup scale} def
/end_insert {PSobj restore} def
/setpagemat {/pagemat matrix currentmatrix def} def
/inchscale  {setpagemat 0.375 mul dup scale} def
/cmscale    {setpagemat 0.35433071 mul dup scale} def

%%EndResource
%%EndProlog

% XCircuit output starts here.

%%BeginSetup

/generic::dot {
% trivial
begingate
248 1.000 0 0 6 0.000 360.000 xcarc
1.000 0.000 0.000 scb
(x) {/Times-Roman cf} 2 29 0 1.000 0 0 pinlabel
endgate
} def

/generic::arrowhead {
% nonetwork
begingate
8 -28 beginpath
3 -18 3 -15 0 0 curveto
-3 -15 -3 -18 -8 -28 curveto
-2 -26 2 -26 8 -28 curveto
249 
1.000 endpath
endgate
} def


%%EndSetup

%%Page: caminantecomplejocinematica 1
%%PageOrientation: Portrait
/pgsave save def bop
1.0000 inchscale
2.6000 setlinewidth 1190 678 translate

1 2.000 -147 -5 132 -117 2 polygon
1 2.000 165 -104 258 67 2 polygon
1 2.000 297 95 447 -480 2 polygon
1 2.000 -161 29 23 8 0.000 355.030 ellipse
1 2.000 -161 -40 23 8 170.925 355.030 ellipse
1 2.000 143 -139 19 27 0.000 360.000 ellipse
1 2.000 -138 -40 -138 29 2 polygon
1 2.000 -184 28 -184 -40 2 polygon
1.000 0 448 -480 generic::dot
{/Helvetica cf} 1 144 0 1.000 -128 48 label
1 2.000 170 -116 19 27 -53.337 103.767 ellipse
1 2.000 137 -113 164 -90 2 polygon
1 2.000 153 -163 182 -137 2 polygon
1 2.000 278 68 307 94 2 polygon
1 2.000 295 115 19 27 -53.337 103.767 ellipse
1 2.000 262 118 289 141 2 polygon
1 2.000 268 92 19 27 0.000 360.000 ellipse
1 2.000 125 123 404 11 2 polygon
1 2.000 437 24 530 195 2 polygon
1 2.000 569 223 719 -352 2 polygon
1 2.000 111 157 23 8 0.000 355.030 ellipse
1 2.000 111 88 23 8 170.925 355.030 ellipse
1 2.000 415 -11 19 27 0.000 360.000 ellipse
1 2.000 134 88 134 157 2 polygon
1 2.000 88 156 88 88 2 polygon
1.000 0 720 -352 generic::dot
1 2.000 442 12 19 27 -53.337 103.767 ellipse
1 2.000 409 15 436 38 2 polygon
1 2.000 425 -35 454 -9 2 polygon
1 2.000 550 196 579 222 2 polygon
1 2.000 567 243 19 27 -53.337 103.767 ellipse
1 2.000 534 246 561 269 2 polygon
1 2.000 540 220 19 27 0.000 360.000 ellipse
1 2.000 397 251 676 139 2 polygon
1 2.000 709 152 802 323 2 polygon
1 2.000 841 351 991 -224 2 polygon
1 2.000 383 285 23 8 0.000 355.030 ellipse
1 2.000 383 216 23 8 170.925 355.030 ellipse
1 2.000 687 117 19 27 0.000 360.000 ellipse
1 2.000 406 216 406 285 2 polygon
1 2.000 360 284 360 216 2 polygon
1.000 0 992 -224 generic::dot
1 2.000 714 140 19 27 -53.337 103.767 ellipse
1 2.000 681 143 708 166 2 polygon
1 2.000 697 93 726 119 2 polygon
1 2.000 822 324 851 350 2 polygon
1 2.000 839 371 19 27 -53.337 103.767 ellipse
1 2.000 806 374 833 397 2 polygon
1 2.000 812 348 19 27 0.000 360.000 ellipse
1 2.000 -771 219 -504 112 2 polygon
1 2.000 -481 141 23 8 0.000 355.030 ellipse
1 2.000 -801 213 19 27 0.000 360.000 ellipse
1 2.000 -458 115 -458 141 2 polygon
1 2.000 -504 140 -504 92 2 polygon
1 2.000 -774 236 19 27 -53.337 103.767 ellipse
1 2.000 -807 239 -780 262 2 polygon
1 2.000 -791 189 -762 215 2 polygon
1 2.000 -906 372 -877 398 2 polygon
1 2.000 -889 419 19 27 -53.337 103.767 ellipse
1 2.000 -922 422 -895 445 2 polygon
1 2.000 -916 396 19 27 0.000 360.000 ellipse
1 2.000 -499 347 -233 241 2 polygon
1 2.000 -209 269 23 8 0.000 355.030 ellipse
1 2.000 -529 341 19 27 0.000 360.000 ellipse
1 2.000 -186 247 -186 269 2 polygon
1 2.000 -232 268 -232 225 2 polygon
1 2.000 -502 364 19 27 -53.337 103.767 ellipse
1 2.000 -535 367 -508 390 2 polygon
1 2.000 -519 317 -490 343 2 polygon
1 2.000 -634 500 -605 526 2 polygon
1 2.000 -617 547 19 27 -53.337 103.767 ellipse
1 2.000 -650 550 -623 573 2 polygon
1 2.000 -644 524 19 27 0.000 360.000 ellipse
1 2.000 -227 475 39 368 2 polygon
1 2.000 63 397 23 8 0.000 355.030 ellipse
1 2.000 -257 469 19 27 0.000 360.000 ellipse
1 2.000 86 380 86 397 2 polygon
1 2.000 40 396 40 358 2 polygon
1 2.000 -230 492 19 27 -53.337 103.767 ellipse
1 2.000 -263 495 -236 518 2 polygon
1 2.000 -247 445 -218 471 2 polygon
1 2.000 -362 628 -333 654 2 polygon
1 2.000 -345 675 19 27 -53.337 103.767 ellipse
1 2.000 -378 678 -351 701 2 polygon
1 2.000 -372 652 19 27 0.000 360.000 ellipse
1 2.000 -615 532 -527 376 2 polygon
1 2.000 -885 404 -797 248 2 polygon
1 2.000 -341 660 -253 504 2 polygon
1 2.000 -919 370 -992 96 2 polygon
1 2.000 -645 498 -720 224 2 polygon
1 2.000 -376 626 -448 352 2 polygon
1.000 0 -992 96 generic::dot
1.000 0 -720 224 generic::dot
1.000 0 -448 352 generic::dot
1 2.000 -528 80 -528 48 2 polygon
1 2.000 -528 80 -224 -32 2 polygon
1 2.000 -528 48 -224 -64 2 polygon
1 2.000 128 400 432 288 2 polygon
1 2.000 -224 -32 -224 -64 2 polygon
1 2.000 432 288 432 256 2 polygon
1 2.000 -528 80 128 400 2 polygon
1 2.000 406 275 432 288 2 polygon
1 2.000 360 253 134 143 2 polygon
1 2.000 88 120 -138 10 2 polygon
1 2.000 -184 -12 -224 -32 2 polygon
1 2.000 -224 -64 -182 -44 2 polygon
1 2.000 -138 -22 87 88 2 polygon
1 2.000 134 111 360 221 2 polygon
1 2.000 406 243 432 256 2 polygon
1 1.000 -32 192 112 272 2 polygon
1 1.000 -32 192 32 160 2 polygon
1 1.000 -32 192 -32 272 2 polygon
1 1.000 -32 192 384 256 2 polygon
1 1.000 384 256 992 -224 2 polygon
1.000 0 -32 192 generic::dot
1.000 124 994 -224 generic::arrowhead
1.000 60 127 281 generic::arrowhead
1.000 360 -32 285 generic::arrowhead
1.000 120 47 151 generic::arrowhead
1.000 81 385 256 generic::arrowhead
1.000 94 994 -224 generic::arrowhead
($B$) {/Helvetica cf} 2 144 0 1.000 -48 144 label
($B_2$) {/Helvetica cf} 2 144 0 1.000 400 304 label
(${{C}\\bar{p}_{B_2}}$) {/Helvetica cf} 2 144 0 1.000 208 256 label
(${{B_2}\\bar{p}_{2}}$) {/Helvetica cf} 2 144 0 1.000 800 -32 label
(${{O}\\bar{p}_{2}}$) {/Helvetica cf} 2 144 0 1.000 -64 -272 label
(${{O}\\bar{p}_{C}}$) {/Helvetica cf} 2 144 0 1.000 -480 -144 label
($R$) {/Helvetica cf} 2 144 0 1.000 -544 -16 label
1.000 360 -624 32 generic::arrowhead
1 1.000 -624 16 -624 -336 2 polygon
1 1.000 -624 -336 -144 -336 2 polygon
1 1.000 -624 -336 -736 -448 2 polygon
1.000 225 -752 -464 generic::arrowhead
1.000 90 -128 -336 generic::arrowhead
1 1.000 -624 -336 -32 192 2 polygon
1 1.000 -624 -336 992 -224 2 polygon
1.000 45 -32 192 generic::arrowhead
1 1.000 -608 -160 -480 192 -32 192 -624 -336 spline
1.000 45 -496 -16 generic::arrowhead
($Y_O$) {/Helvetica cf} 2 144 0 1.000 -128 -384 label
($Z_O$) {/Helvetica cf} 2 144 0 1.000 -688 16 label
($X_O$) {/Helvetica cf} 2 144 0 1.000 -720 -480 label
pgsave restore showpage

%%Trailer
XCIRCsave restore
%%EOF
