%!PS-Adobe-3.0 EPSF-3.0
%%Title: diagramawavegait.eps
%%Creator: XCircuit v3.7 rev40
%%CreationDate: Fri Mar  8 18:05:59 2013
%%Pages: 1
%%BoundingBox: 68 68 476 328
%%DocumentNeededResources: font Helvetica 
%%EndComments
%%BeginProlog
%
%  PostScript prolog for output from xcircuit
%  Version: 3.7
%
%  Electrical circuit (and otherwise general) drawing program
%
%  Written by Tim Edwards 8/5/93--11/1/10  (tim.edwards@multigig.com)
%  The Johns Hopkins University (1993-2004)
%  MultiGiG, Inc. (2004-present)
%
%%BeginResource: procset XCIRCproc 3.7 2
%
% supporting definitions --- these are the primary xcircuit types.

/XCIRCsave save def
/topmat matrix currentmatrix def

/fontslant { /slant exch def [1 0 slant 1 0 0] 
    exch findfont exch makefont dup length dict /ndict exch def
    { 1 index /FID ne { ndict 3 1 roll put } { pop pop } ifelse } forall
    ndict definefont pop} def
/ul { dup type /stringtype eq showflag 1 eq and { gsave 
   currentpoint topmat setmatrix 0 0 moveto 2 index stringwidth pop (_)
   false charpath flattenpath pathbbox grestore exch pop 1 index
   sub setlinewidth exch pop currentpoint 3 -1 roll add moveto 0
   rlineto stroke moveto } if } def
/ol { dup type /stringtype eq showflag 1 eq and { gsave gsave
   currentpoint topmat setmatrix 2 index stringwidth pop 3 index
   true charpath flattenpath pathbbox grestore exch pop
   exch pop topmat setmatrix (_) true charpath pathbbox grestore
   exch pop 1 index sub setlinewidth exch pop currentpoint
   exch 4 1 roll exch sub add moveto pop 0 rlineto stroke
   moveto } if } def
/stW { gsave currentpoint newpath moveto true charpath flattenpath
	pathbbox pop exch pop sub grestore } def
/Ts {mark Tabs aload pop counttomark 1 add array astore /Tabs exch def Tabs
	0 currentpoint pop put} def
/Tbn {mark Tabs aload pop counttomark dup 2 add 1 roll cleartomark 1 sub} def
/Tb { 0 1 Tbn {Tabs exch get dup currentpoint pop lt
	{currentpoint exch pop moveto exit} {pop} ifelse } for } def
/Tf { Tbn -1 0 {Tabs exch get dup currentpoint pop gt
	{currentpoint exch pop moveto exit} {pop} ifelse } for } def
/qS { (aa) stW (a a) stW sub 4 div 0 Kn } def
/hS { qS qS } def
/pspc 0 def
/cf0 { scalefont setfont } bind def
/Kn { dup kY add /kY exch def rmoveto } bind def
/ss { /fscale fscale 0.67 mul def currentfont 0.67 cf0 0 fscale0 fscale mul
	0.33 mul neg Kn} def
/Ss { /fscale fscale 0.67 mul def currentfont 0.67 cf0 0 fscale0 fscale mul
	0.67 mul Kn } def
/ns { 0 kY neg Kn /kY 0 def /fscale 1.0 def xfont0 1.0 cf0 } def
/CR { ns 0 /Bline Bline fscale0 neg add def Bline moveto } def
/cf { dup type /realtype ne {1.0} if exch findfont exch kY 0 eq
	{ 40 mul dup /fscale0 exch def cf0 /xfont0 currentfont def}
	{fscale0 mul fscale mul cf0} ifelse } def
/ctmk { counttomark dup 2 add -1 roll pop } bind def
/label { gsave translate 0 0 moveto dup scale neg /rotval exch def
	/just exch def just 384 and 0 gt {/mshow {pop} def} {/mshow {show}
	def} ifelse just 16 and 0 gt {gsave rotval rotate 0 1 dtransform
	gsave pagemat setmatrix idtransform exch grestore 1 0 dtransform
	gsave pagemat setmatrix idtransform exch grestore dup abs 1e-9 lt
	{pop mul 0 gt} {3 1 roll pop pop 0 lt} ifelse grestore {-1 /rotval
	rotval neg def /just just dup 3 and 1 ne {3 xor} if def} {1} ifelse
	exch -1e-9 lt {-1 /rotval rotval neg def /just just dup 12 and
	4 ne {12 xor} if def} {1} ifelse scale } if /showflag 0 def
	/fspc pspc def /Bline 0 def /Tabs 0 array def /fscale 1.0 def
	/kY 0 def gsave dup 1 add copy 0 exch 1 0 dtransform exch atan rotate
	{exch dup type /stringtype eq {true charpath flattenpath} {dup type
	/arraytype eq {exec} {12 string cvs true charpath flattenpath} ifelse}
	ifelse} repeat pop pathbbox grestore 3 -1 roll pop 3 1 roll just
	1 and 0 gt {just 2 and 0 gt {exch pop neg fspc sub} {exch sub 0.5
	mul neg} ifelse} {pop neg fspc add} ifelse exch Bline exch just 4
	and 0 gt {just 8 and 0 gt {exch pop neg fspc sub} {add 0.5 mul neg}
	ifelse} {pop neg fspc add} ifelse rotval rotate Kn currentpoint
	translate /showflag 1 def /Bline 0 def /Tabs 0 array def /fscale
	1.0 def /kY 0 def {dup type /stringtype eq {mshow} {dup type
	/arraytype eq {exec} {12 string cvs mshow} ifelse} ifelse} repeat
	grestore endclip} def
/pinlabel { 4 index 32 and 0 ne hlevel 0 eq or { /pspc 10 def label
	/pspc 0 def } { pop pop pop pop pop {pop} repeat } ifelse } def
/pinglobal { pinlabel } def
/infolabel { pinlabel } def
/graphic { gsave 4 index cvx exec /DataSource get resetfile translate 0 0
	moveto neg rotate dup scale cvx exec image grestore endclip} def

/scb { setrgbcolor } bind def  /sce { defColor aload pop scb } bind def
/cRedef {/defColor currentcolor 3 array astore def} def
/begingate {dup type /dicttype ne {1 dict} if begin	% default params
	dup type /dicttype ne {1 dict} if begin		% instanced params
	/hlevel hlevel 1 add def /defColor currentcolor sce 3 array astore
	def gsave sce translate 0 0 moveto neg rotate dup type /nametype
	eq not { dup abs currentlinewidth exch div setlinewidth } { pop }
	ifelse dup abs scale clipped 1 and 1 eq {/clipped clipped 1 add def}
	if} bind def
/endgate { /hlevel hlevel 1 sub def grestore defColor aload pop cRedef
	scb end end endclip} bind def

/hlevel 0 def
/endclip {clipped 1 and 1 eq {grestore /clipped clipped 1 sub def} if} def
/tmpa [1 0 0 1 0 0] def
/gar {8 8 true tmpa {<c0 c0 00 00 0c 0c 00 00>} imagemask} bind
{8 8 true tmpa {<30 70 60 02 03 07 06 20>} imagemask} bind
{8 8 true tmpa {<0c 1e 1e 0c c0 e1 e1 c0>} imagemask} bind
{8 8 true tmpa {<0f 0f 0f 0f f0 f0 f0 f0>} imagemask} bind
{8 8 true tmpa {<3f f3 e1 e1 f3 3f 1e 1e>} imagemask} bind
{8 8 true tmpa {<df cf 8f 9f fd fc f8 f9>} imagemask} bind
{8 8 true tmpa {<ff 3f 3f ff ff f3 f3 ff>} imagemask} bind 7 array astore def
/ppaint { gsave clip tmpa dup setmatrix pathbbox neg exch neg 4 2 roll
  neg 4 -1 roll 2 copy gt {exch} if 8 div ceiling 8 mul 4 2 roll neg 2 copy
  gt {exch} if 8 div ceiling 8 mul 3 -1 roll -8 5 -1 roll
  { 3 index exch 5 exch put dup -8 3 index { 3 index
  exch 4 exch put 3 index exec } for } for pop pop pop pop grestore } bind def
/setstyles {
  currentlinewidth mul setlinewidth /style exch def style 2048 and 0 gt
  clipped 1 and 0 eq and {clip newpath /clipped clipped 1 add def} {
  style 1 and 0 gt not {closepath} if
  style 1024 and 0 gt {2 setlinecap} if
  style 2 and 0 gt {currentlinewidth 4 mul dup 2 array astore 0 setdash} if
  style 4 and 0 gt {0.5 currentlinewidth 4 mul 2 array astore 0 setdash} if
  gsave style 16 and 0 gt { style 224 and -5 bitshift style 256 and 0 gt {
  7 exch sub 8 div dup 1 exch sub currentrgbcolor 3 array astore
  {3 copy mul add 4 1 roll pop} forall pop pop setrgbcolor eofill}
  {dup 7 lt {gar exch get ppaint} {pop eofill} ifelse} ifelse}
  {style 256 and 0 gt {1 setgray eofill} if} ifelse grestore style 8 and 0 gt 
  style 512 eq or {newpath} {stroke} ifelse grestore endclip} ifelse} def     

/addtoy {exch dup dup 2 mul 3 add 1 roll -1 1 { 4 1 roll dup 4 1 roll add
	4 -1 roll 2 mul 1 add index 2 mul 2 add 2 roll} for pop} def
/addtoy1 {1 exch addtoy pop} def
/addtoy3 {3 exch addtoy pop} def
/addtoy4 {4 exch addtoy pop} def
/addtox {exch dup dup 2 mul 3 add 1 roll -1 1 { 4 1 roll dup 4 1 roll 3 -1 roll
	add exch 4 -1 roll 2 mul 1 add index 2 mul 2 add 2 roll} for pop} def
/addtox1 {1 exch addtox pop} def
/addtox3 {3 exch addtox pop} def
/addtox4 {4 exch addtox pop} def
/polygon { gsave /num exch def moveto num 1 sub {lineto} repeat setstyles } def
/xcarc   { gsave newpath arc setstyles } def
/elb { matrix currentmatrix 7 -1 roll 7 -1 roll translate 5 1 roll 4 -1 roll
	3 index div 1 scale } def
/ele { 0 4 1 roll 0 4 1 roll } bind def
/ellipse { gsave elb newpath ele arc setmatrix setstyles } def
/pellip  { elb ele arc setmatrix } def
/nellip  { elb ele arcn setmatrix } def
/spline  { gsave moveto curveto setstyles } def
/polyc   { {lineto} repeat } bind def
/beginpath { gsave moveto } bind def
/endpath { setstyles } bind def
/bop	 { 1 setlinecap 0 setlinejoin 6 setmiterlimit 0 0 0 scb cRedef
	/clipped 0 def} def
/psinsertion {/PSobj save def /showpage {} def /setpagedevice {pop} def bop
	rotate translate dup scale} def
/end_insert {PSobj restore} def
/setpagemat {/pagemat matrix currentmatrix def} def
/inchscale  {setpagemat 0.375 mul dup scale} def
/cmscale    {setpagemat 0.35433071 mul dup scale} def

%%EndResource
%%EndProlog

% XCircuit output starts here.

%%BeginSetup


%%EndSetup

%%Page: diagramawavegait 1
%%PageOrientation: Portrait
/pgsave save def bop
1.0000 inchscale
2.6000 setlinewidth 576 -1804 translate

0 2.000 -352 2272 -352 2048 32 2048 32 2272 4 polygon
5 1.000 -320 2272 -320 2048 2 polygon
5 1.000 -288 2272 -288 2048 2 polygon
5 1.000 -256 2272 -256 2048 2 polygon
5 1.000 -224 2272 -224 2048 2 polygon
5 1.000 -192 2272 -192 2048 2 polygon
5 1.000 -160 2272 -160 2048 2 polygon
5 1.000 -128 2272 -128 2048 2 polygon
5 1.000 -96 2272 -96 2048 2 polygon
5 1.000 -64 2272 -64 2048 2 polygon
5 1.000 -32 2272 -32 2048 2 polygon
5 1.000 0 2272 0 2048 2 polygon
1 3.000 -352 2240 -96 2240 2 polygon
1 3.000 -352 2208 -224 2208 2 polygon
1 3.000 -96 2208 32 2208 2 polygon
1 3.000 -224 2176 32 2176 2 polygon
1 3.000 -352 2144 -288 2144 2 polygon
1 3.000 -160 2144 32 2144 2 polygon
1 3.000 -352 2080 -160 2080 2 polygon
1 3.000 -288 2112 -32 2112 2 polygon
1 3.000 -32 2080 32 2080 2 polygon
(0) {/Helvetica cf} 2 16 0 0.500 -352 2288 label
(1) {/Helvetica cf} 2 16 0 0.500 -320 2288 label
(2) {/Helvetica cf} 2 16 0 0.500 -288 2288 label
(3) {/Helvetica cf} 2 16 0 0.500 -256 2288 label
(4) {/Helvetica cf} 2 16 0 0.500 -224 2288 label
(5) {/Helvetica cf} 2 16 0 0.500 -192 2288 label
(6) {/Helvetica cf} 2 16 0 0.500 -160 2288 label
(7) {/Helvetica cf} 2 16 0 0.500 -128 2288 label
(8) {/Helvetica cf} 2 16 0 0.500 -96 2288 label
(9) {/Helvetica cf} 2 16 0 0.500 -64 2288 label
(10) {/Helvetica cf} 2 16 0 0.500 -32 2288 label
(11) {/Helvetica cf} 2 16 0 0.500 0 2288 label
(0) {/Helvetica cf} 2 16 0 0.500 32 2288 label
(1) {/Helvetica cf} 2 16 0 0.500 -384 2240 label
(3) {/Helvetica cf} 2 16 0 0.500 -384 2208 label
(5) {/Helvetica cf} 2 16 0 0.500 -384 2176 label
(2) {/Helvetica cf} 2 16 0 0.500 -384 2144 label
(4) {/Helvetica cf} 2 16 0 0.500 -384 2112 label
(6) {/Helvetica cf} 2 16 0 0.500 -384 2080 label
0 2.000 288 2640 288 2416 672 2416 672 2640 4 polygon
1 3.000 352 2448 672 2448 2 polygon
5 1.000 640 2640 640 2416 2 polygon
5 1.000 608 2640 608 2416 2 polygon
5 1.000 576 2640 576 2416 2 polygon
5 1.000 544 2640 544 2416 2 polygon
5 1.000 512 2640 512 2416 2 polygon
5 1.000 480 2640 480 2416 2 polygon
5 1.000 448 2640 448 2416 2 polygon
5 1.000 416 2640 416 2416 2 polygon
5 1.000 384 2640 384 2416 2 polygon
5 1.000 352 2640 352 2416 2 polygon
5 1.000 320 2640 320 2416 2 polygon
1 3.000 288 2480 352 2480 2 polygon
1 3.000 288 2512 416 2512 2 polygon
1 3.000 288 2544 480 2544 2 polygon
1 3.000 288 2576 544 2576 2 polygon
1 3.000 288 2608 608 2608 2 polygon
1 3.000 608 2576 672 2576 2 polygon
1 3.000 544 2544 672 2544 2 polygon
1 3.000 480 2512 672 2512 2 polygon
1 3.000 416 2480 672 2480 2 polygon
(0) {/Helvetica cf} 2 16 0 0.500 672 2656 label
(11) {/Helvetica cf} 2 16 0 0.500 640 2656 label
(10) {/Helvetica cf} 2 16 0 0.500 608 2656 label
(0) {/Helvetica cf} 2 16 0 0.500 288 2656 label
(1) {/Helvetica cf} 2 16 0 0.500 320 2656 label
(2) {/Helvetica cf} 2 16 0 0.500 352 2656 label
(3) {/Helvetica cf} 2 16 0 0.500 384 2656 label
(4) {/Helvetica cf} 2 16 0 0.500 416 2656 label
(5) {/Helvetica cf} 2 16 0 0.500 448 2656 label
(6) {/Helvetica cf} 2 16 0 0.500 480 2656 label
(7) {/Helvetica cf} 2 16 0 0.500 512 2656 label
(8) {/Helvetica cf} 2 16 0 0.500 544 2656 label
(9) {/Helvetica cf} 2 16 0 0.500 576 2656 label
(3) {/Helvetica cf} 2 16 0 0.500 256 2576 label
(1) {/Helvetica cf} 2 16 0 0.500 256 2608 label
(5) {/Helvetica cf} 2 16 0 0.500 256 2544 label
(2) {/Helvetica cf} 2 16 0 0.500 256 2512 label
(4) {/Helvetica cf} 2 16 0 0.500 256 2480 label
(6) {/Helvetica cf} 2 16 0 0.500 256 2448 label
0 2.000 -352 2640 -352 2416 32 2416 32 2640 4 polygon
1 3.000 -160 2448 32 2448 2 polygon
5 1.000 0 2640 0 2416 2 polygon
5 1.000 -32 2640 -32 2416 2 polygon
5 1.000 -64 2640 -64 2416 2 polygon
5 1.000 -96 2640 -96 2416 2 polygon
5 1.000 -128 2640 -128 2416 2 polygon
5 1.000 -160 2640 -160 2416 2 polygon
5 1.000 -192 2640 -192 2416 2 polygon
5 1.000 -224 2640 -224 2416 2 polygon
5 1.000 -256 2640 -256 2416 2 polygon
5 1.000 -288 2640 -288 2416 2 polygon
5 1.000 -320 2640 -320 2416 2 polygon
1 3.000 -352 2480 -160 2480 2 polygon
1 3.000 -352 2544 -160 2544 2 polygon
1 3.000 -352 2608 -160 2608 2 polygon
1 3.000 -160 2576 32 2576 2 polygon
1 3.000 -160 2512 32 2512 2 polygon
(0) {/Helvetica cf} 2 16 0 0.500 32 2656 label
(11) {/Helvetica cf} 2 16 0 0.500 0 2656 label
(10) {/Helvetica cf} 2 16 0 0.500 -32 2656 label
(0) {/Helvetica cf} 2 16 0 0.500 -352 2656 label
(1) {/Helvetica cf} 2 16 0 0.500 -320 2656 label
(2) {/Helvetica cf} 2 16 0 0.500 -288 2656 label
(3) {/Helvetica cf} 2 16 0 0.500 -256 2656 label
(4) {/Helvetica cf} 2 16 0 0.500 -224 2656 label
(5) {/Helvetica cf} 2 16 0 0.500 -192 2656 label
(6) {/Helvetica cf} 2 16 0 0.500 -160 2656 label
(7) {/Helvetica cf} 2 16 0 0.500 -128 2656 label
(8) {/Helvetica cf} 2 16 0 0.500 -96 2656 label
(9) {/Helvetica cf} 2 16 0 0.500 -64 2656 label
(3) {/Helvetica cf} 2 16 0 0.500 -384 2576 label
(1) {/Helvetica cf} 2 16 0 0.500 -384 2608 label
(5) {/Helvetica cf} 2 16 0 0.500 -384 2544 label
(2) {/Helvetica cf} 2 16 0 0.500 -384 2512 label
(4) {/Helvetica cf} 2 16 0 0.500 -384 2480 label
(6) {/Helvetica cf} 2 16 0 0.500 -384 2448 label
0 2.000 288 2272 288 2048 672 2048 672 2272 4 polygon
1 3.000 416 2080 672 2080 2 polygon
5 1.000 640 2272 640 2048 2 polygon
5 1.000 608 2272 608 2048 2 polygon
5 1.000 576 2272 576 2048 2 polygon
5 1.000 544 2272 544 2048 2 polygon
5 1.000 512 2272 512 2048 2 polygon
5 1.000 480 2272 480 2048 2 polygon
5 1.000 448 2272 448 2048 2 polygon
5 1.000 416 2272 416 2048 2 polygon
5 1.000 384 2272 384 2048 2 polygon
5 1.000 352 2272 352 2048 2 polygon
5 1.000 320 2272 320 2048 2 polygon
1 3.000 288 2112 416 2112 2 polygon
1 3.000 288 2144 448 2144 2 polygon
1 3.000 288 2176 576 2176 2 polygon
1 3.000 288 2208 608 2208 2 polygon
1 3.000 288 2240 640 2240 2 polygon
1 3.000 640 2208 672 2208 2 polygon
1 3.000 608 2176 672 2176 2 polygon
1 3.000 480 2144 672 2144 2 polygon
1 3.000 448 2112 672 2112 2 polygon
(0) {/Helvetica cf} 2 16 0 0.500 672 2288 label
(11) {/Helvetica cf} 2 16 0 0.500 640 2288 label
(10) {/Helvetica cf} 2 16 0 0.500 608 2288 label
(0) {/Helvetica cf} 2 16 0 0.500 288 2288 label
(1) {/Helvetica cf} 2 16 0 0.500 320 2288 label
(2) {/Helvetica cf} 2 16 0 0.500 352 2288 label
(3) {/Helvetica cf} 2 16 0 0.500 384 2288 label
(4) {/Helvetica cf} 2 16 0 0.500 416 2288 label
(5) {/Helvetica cf} 2 16 0 0.500 448 2288 label
(6) {/Helvetica cf} 2 16 0 0.500 480 2288 label
(7) {/Helvetica cf} 2 16 0 0.500 512 2288 label
(8) {/Helvetica cf} 2 16 0 0.500 544 2288 label
(9) {/Helvetica cf} 2 16 0 0.500 576 2288 label
(3) {/Helvetica cf} 2 16 0 0.500 256 2208 label
(1) {/Helvetica cf} 2 16 0 0.500 256 2240 label
(5) {/Helvetica cf} 2 16 0 0.500 256 2176 label
(2) {/Helvetica cf} 2 16 0 0.500 256 2144 label
(4) {/Helvetica cf} 2 16 0 0.500 256 2112 label
(6) {/Helvetica cf} 2 16 0 0.500 256 2080 label
1 3.000 288 2080 384 2080 2 polygon
($\\beta = \\frac{1}{2}$) {/Helvetica cf} 2 144 0 1.000 -352 2368 label
($\\beta = \\frac{2}{3}$) {/Helvetica cf} 2 144 0 1.000 -352 2000 label
($\\beta = \\frac{5}{6}$) {/Helvetica cf} 2 144 0 1.000 288 2368 label
($\\beta = \\frac{11}{12}$) {/Helvetica cf} 2 144 0 1.000 288 2000 label
pgsave restore showpage

%%Trailer
XCIRCsave restore
%%EOF
