%!PS-Adobe-3.0 EPSF-3.0
%%Title: diagramaequalphasegait.eps
%%Creator: XCircuit v3.6 rev135
%%CreationDate: Tue Apr 10 09:41:08 2012
%%Pages: 1
%%BoundingBox: 68 68 475 671
%%DocumentNeededResources: font Helvetica 
%%EndComments
%%BeginProlog
%
%  PostScript prolog for output from xcircuit
%  Version: 3.3
%
%  Electrical circuit (and otherwise general) drawing program
%
%  Written by Tim Edwards 8/5/93--7/13/05  (tim.edwards@multigig.com)
%  The Johns Hopkins University (1993-2004)
%  MultiGiG, Inc. (2004-present)
%
%%BeginResource: procset XCIRCproc 3.3 0
%
% supporting definitions --- these are the primary xcircuit types.

/XCIRCsave save def
/topmat matrix currentmatrix def

/fontslant { /slant exch def [1 0 slant 1 0 0] 
    exch findfont exch makefont dup length dict /ndict exch def
    { 1 index /FID ne { ndict 3 1 roll put } { pop pop } ifelse } forall
    ndict definefont pop} def
/ul { dup type /stringtype eq showflag 1 eq and { gsave 
   currentpoint topmat setmatrix 0 0 moveto 2 index stringwidth pop (_)
   false charpath flattenpath pathbbox grestore exch pop 1 index
   sub setlinewidth exch pop currentpoint 3 -1 roll add moveto 0
   rlineto stroke moveto } if } def
/ol { dup type /stringtype eq showflag 1 eq and { gsave gsave
   currentpoint topmat setmatrix 2 index stringwidth pop 3 index
   true charpath flattenpath pathbbox grestore exch pop
   exch pop topmat setmatrix (_) true charpath pathbbox grestore
   exch pop 1 index sub setlinewidth exch pop currentpoint
   exch 4 1 roll exch sub add moveto pop 0 rlineto stroke
   moveto } if } def
/stW { gsave currentpoint newpath moveto true charpath flattenpath
	pathbbox pop exch pop sub grestore } def
/Ts {mark Tabs aload pop counttomark 1 add array astore /Tabs exch def Tabs
	0 currentpoint pop put} def
/Tbn {mark Tabs aload pop counttomark dup 2 add 1 roll cleartomark 1 sub} def
/Tb { 0 1 Tbn {Tabs exch get dup currentpoint pop lt
	{currentpoint exch pop moveto exit} {pop} ifelse } for } def
/Tf { Tbn -1 0 {Tabs exch get dup currentpoint pop gt
	{currentpoint exch pop moveto exit} {pop} ifelse } for } def
/qS { (aa) stW (a a) stW sub 4 div 0 Kn } def
/hS { qS qS } def
/pspc 0 def
/cf0 { scalefont setfont } bind def
/Kn { dup kY add /kY exch def rmoveto } bind def
/ss { /fscale fscale 0.67 mul def currentfont 0.67 cf0 0 fscale0 fscale mul
	0.33 mul neg Kn} def
/Ss { /fscale fscale 0.67 mul def currentfont 0.67 cf0 0 fscale0 fscale mul
	0.67 mul Kn } def
/ns { 0 kY neg Kn /kY 0 def /fscale 1.0 def xfont0 1.0 cf0 } def
/CR { ns 0 /Bline Bline fscale0 neg add def Bline moveto } def
/cf { dup type /realtype ne {1.0} if exch findfont exch kY 0 eq
	{ 40 mul dup /fscale0 exch def cf0 /xfont0 currentfont def}
	{fscale0 mul fscale mul cf0} ifelse } def
/ctmk { counttomark dup 2 add -1 roll pop } bind def
/label { gsave translate 0 0 moveto dup scale neg /rotval exch def
	/just exch def just 384 and 0 gt {/mshow {pop} def} {/mshow {show}
	def} ifelse just 16 and 0 gt {gsave rotval rotate 0 1 dtransform
	gsave pagemat setmatrix idtransform exch grestore 1 0 dtransform
	gsave pagemat setmatrix idtransform exch grestore dup abs 1e-9 lt
	{pop mul 0 gt} {3 1 roll pop pop 0 lt} ifelse grestore {-1 /rotval
	rotval neg def /just just dup 3 and 1 ne {3 xor} if def} {1} ifelse
	exch -1e-9 lt {-1 /rotval rotval neg def /just just dup 12 and
	4 ne {12 xor} if def} {1} ifelse scale } if /showflag 0 def
	/fspc pspc def /Bline 0 def /Tabs 0 array def /fscale 1.0 def
	/kY 0 def gsave dup 1 add copy 0 exch 1 0 dtransform exch atan rotate
	{exch dup type /stringtype eq {true charpath flattenpath} {dup type
	/arraytype eq {exec} {12 string cvs true charpath flattenpath} ifelse}
	ifelse} repeat pop pathbbox grestore 3 -1 roll pop 3 1 roll just
	1 and 0 gt {just 2 and 0 gt {exch pop neg fspc sub} {exch sub 0.5
	mul neg} ifelse} {pop neg fspc add} ifelse exch Bline exch just 4
	and 0 gt {just 8 and 0 gt {exch pop neg fspc sub} {add 0.5 mul neg}
	ifelse} {pop neg fspc add} ifelse rotval rotate Kn currentpoint
	translate /showflag 1 def /Bline 0 def /Tabs 0 array def /fscale
	1.0 def /kY 0 def {dup type /stringtype eq {mshow} {dup type
	/arraytype eq {exec} {12 string cvs mshow} ifelse} ifelse} repeat
	grestore } def
/pinlabel { 4 index 32 and 0 ne hlevel 0 eq or { /pspc 10 def label
	/pspc 0 def } { pop pop pop pop pop {pop} repeat } ifelse } def
/pinglobal { pinlabel } def
/infolabel { pinlabel } def
/graphic { gsave 4 index cvx exec /DataSource get resetfile translate
	0 0 moveto neg rotate dup scale cvx exec image grestore } def

/scb { setrgbcolor } bind def  /sce { defColor aload pop scb } bind def
/cRedef {/defColor currentcolor 3 array astore def} def
/begingate {dup type /dicttype ne {1 dict} if begin	% default params
	dup type /dicttype ne {1 dict} if begin		% instanced params
	/hlevel hlevel 1 add def /defColor currentcolor sce 3 array
	astore def gsave sce translate 0 0 moveto neg rotate dup abs scale
	} bind def
/endgate { /hlevel hlevel 1 sub def grestore defColor aload pop cRedef
	scb end end} bind def

/hlevel 0 def
/tmpa [1 0 0 1 0 0] def
/gar {8 8 true tmpa {<c0 c0 00 00 0c 0c 00 00>} imagemask} bind
{8 8 true tmpa {<30 70 60 02 03 07 06 20>} imagemask} bind
{8 8 true tmpa {<0c 1e 1e 0c c0 e1 e1 c0>} imagemask} bind
{8 8 true tmpa {<0f 0f 0f 0f f0 f0 f0 f0>} imagemask} bind
{8 8 true tmpa {<3f f3 e1 e1 f3 3f 1e 1e>} imagemask} bind
{8 8 true tmpa {<df cf 8f 9f fd fc f8 f9>} imagemask} bind
{8 8 true tmpa {<ff 3f 3f ff ff f3 f3 ff>} imagemask} bind 7 array astore def
/ppaint { gsave clip tmpa dup setmatrix pathbbox neg exch neg 4 2 roll
  neg 4 -1 roll 2 copy gt {exch} if 8 div ceiling 8 mul 4 2 roll neg 2 copy
  gt {exch} if 8 div ceiling 8 mul 3 -1 roll -8 5 -1 roll
  { 3 index exch 5 exch put dup -8 3 index { 3 index
  exch 4 exch put 3 index exec } for } for pop pop pop pop grestore } bind def
/setstyles {
  currentlinewidth mul setlinewidth /style exch def
  style 1 and 0 gt not {closepath} if
  style 1024 and 0 gt {2 setlinecap} if
  style 2 and 0 gt {currentlinewidth 4 mul dup 2 array astore 0 setdash} if
  style 4 and 0 gt {0.5 currentlinewidth 4 mul 2 array astore 0 setdash} if
  gsave style 16 and 0 gt { style 224 and -5 bitshift style 256 and 0 gt {
  7 exch sub 8 div dup 1 exch sub currentrgbcolor 3 array astore
  {3 copy mul add 4 1 roll pop} forall pop pop setrgbcolor eofill}
  {dup 7 lt {gar exch get ppaint} {pop eofill} ifelse} ifelse}
  {style 256 and 0 gt {1 setgray eofill} if} ifelse grestore style 8 and 0 gt 
  style 512 eq or {newpath} {stroke} ifelse grestore} def     

/polygon { gsave /num exch def moveto num 1 sub {lineto} repeat setstyles } def
/xcarc   { gsave newpath arc setstyles } def
/elb { matrix currentmatrix 7 -1 roll 7 -1 roll translate 5 1 roll 4 -1 roll
	3 index div 1 scale } def
/ele { 0 4 1 roll 0 4 1 roll } bind def
/ellipse { gsave elb newpath ele arc setmatrix setstyles } def
/pellip  { elb ele arc setmatrix } def
/nellip  { elb ele arcn setmatrix } def
/spline  { gsave moveto curveto setstyles } def
/polyc   { {lineto} repeat } bind def
/beginpath { gsave moveto } bind def
/endpath { setstyles } bind def
/bop	 { 1 setlinecap 0 setlinejoin 6 setmiterlimit 0 0 0 scb cRedef } def
/psinsertion {/PSobj save def /showpage {} def /setpagedevice {pop} def bop
	rotate translate dup scale} def
/end_insert {PSobj restore} def
/setpagemat {/pagemat matrix currentmatrix def} def
/inchscale  {setpagemat 0.375 mul dup scale} def
/cmscale    {setpagemat 0.35433071 mul dup scale} def

%%EndResource
%%EndProlog

% XCircuit output starts here.

%%BeginSetup


%%EndSetup

%%Page: 1 1
%%PageOrientation: Portrait
/pgsave save def bop
1.0000 inchscale
2.6000 setlinewidth 576 -584 translate

0 2.000 -352 2336 -352 2112 32 2112 32 2336 4 polygon
5 1.000 -320 2336 -320 2112 2 polygon
5 1.000 -288 2336 -288 2112 2 polygon
5 1.000 -256 2336 -256 2112 2 polygon
5 1.000 -224 2336 -224 2112 2 polygon
5 1.000 -192 2336 -192 2112 2 polygon
5 1.000 -160 2336 -160 2112 2 polygon
5 1.000 -128 2336 -128 2112 2 polygon
5 1.000 -96 2336 -96 2112 2 polygon
5 1.000 -64 2336 -64 2112 2 polygon
5 1.000 -32 2336 -32 2112 2 polygon
5 1.000 0 2336 0 2112 2 polygon
1 3.000 -352 2304 -160 2304 2 polygon
1 3.000 -352 2272 -224 2272 2 polygon
1 3.000 -32 2272 32 2272 2 polygon
1 3.000 -352 2240 -288 2240 2 polygon
1 3.000 -96 2240 32 2240 2 polygon
1 3.000 -160 2208 32 2208 2 polygon
1 3.000 -224 2176 -32 2176 2 polygon
1 3.000 -288 2144 -96 2144 2 polygon
(0) {/Helvetica cf} 2 16 0 0.500 -352 2352 label
(1) {/Helvetica cf} 2 16 0 0.500 -320 2352 label
(2) {/Helvetica cf} 2 16 0 0.500 -288 2352 label
(3) {/Helvetica cf} 2 16 0 0.500 -256 2352 label
(4) {/Helvetica cf} 2 16 0 0.500 -224 2352 label
(5) {/Helvetica cf} 2 16 0 0.500 -192 2352 label
(6) {/Helvetica cf} 2 16 0 0.500 -160 2352 label
(7) {/Helvetica cf} 2 16 0 0.500 -128 2352 label
(8) {/Helvetica cf} 2 16 0 0.500 -96 2352 label
(9) {/Helvetica cf} 2 16 0 0.500 -64 2352 label
(10) {/Helvetica cf} 2 16 0 0.500 -32 2352 label
(11) {/Helvetica cf} 2 16 0 0.500 0 2352 label
(0) {/Helvetica cf} 2 16 0 0.500 32 2352 label
(1) {/Helvetica cf} 2 16 0 0.500 -384 2304 label
(2) {/Helvetica cf} 2 16 0 0.500 -384 2208 label
(3) {/Helvetica cf} 2 16 0 0.500 -384 2272 label
(4) {/Helvetica cf} 2 16 0 0.500 -384 2176 label
(5) {/Helvetica cf} 2 16 0 0.500 -384 2240 label
(6) {/Helvetica cf} 2 16 0 0.500 -384 2144 label
($\\beta=\\frac{1}{2}$) {/Helvetica cf} 2 144 0 2.000 -16 2032 label
(0) {/Helvetica cf} 2 16 0 0.500 544 2352 label
(11) {/Helvetica cf} 2 16 0 0.500 512 2352 label
(10) {/Helvetica cf} 2 16 0 0.500 480 2352 label
(9) {/Helvetica cf} 2 16 0 0.500 448 2352 label
(8) {/Helvetica cf} 2 16 0 0.500 416 2352 label
(7) {/Helvetica cf} 2 16 0 0.500 384 2352 label
(6) {/Helvetica cf} 2 16 0 0.500 352 2352 label
(5) {/Helvetica cf} 2 16 0 0.500 320 2352 label
(4) {/Helvetica cf} 2 16 0 0.500 288 2352 label
(3) {/Helvetica cf} 2 16 0 0.500 256 2352 label
(2) {/Helvetica cf} 2 16 0 0.500 224 2352 label
(1) {/Helvetica cf} 2 16 0 0.500 192 2352 label
(0) {/Helvetica cf} 2 16 0 0.500 160 2352 label
(1) {/Helvetica cf} 2 16 0 0.500 128 2304 label
(2) {/Helvetica cf} 2 16 0 0.500 128 2208 label
(3) {/Helvetica cf} 2 16 0 0.500 128 2272 label
(4) {/Helvetica cf} 2 16 0 0.500 128 2176 label
(6) {/Helvetica cf} 2 16 0 0.500 128 2144 label
(5) {/Helvetica cf} 2 16 0 0.500 128 2240 label
1 3.000 288 2144 160 2144 2 polygon
1 3.000 160 2272 224 2272 2 polygon
5 1.000 192 2336 192 2112 2 polygon
0 2.000 160 2336 160 2112 544 2112 544 2336 4 polygon
1 3.000 416 2272 544 2272 2 polygon
1 3.000 160 2304 352 2304 2 polygon
1 3.000 288 2240 480 2240 2 polygon
1 3.000 352 2208 544 2208 2 polygon
5 1.000 448 2336 448 2112 2 polygon
1 3.000 480 2144 544 2144 2 polygon
5 1.000 480 2336 480 2112 2 polygon
1 3.000 224 2176 416 2176 2 polygon
(0) {/Helvetica cf} 2 16 0 0.500 32 1936 label
(11) {/Helvetica cf} 2 16 0 0.500 0 1936 label
(10) {/Helvetica cf} 2 16 0 0.500 -32 1936 label
(9) {/Helvetica cf} 2 16 0 0.500 -64 1936 label
(8) {/Helvetica cf} 2 16 0 0.500 -96 1936 label
(7) {/Helvetica cf} 2 16 0 0.500 -128 1936 label
(6) {/Helvetica cf} 2 16 0 0.500 -160 1936 label
(5) {/Helvetica cf} 2 16 0 0.500 -192 1936 label
(4) {/Helvetica cf} 2 16 0 0.500 -224 1936 label
(3) {/Helvetica cf} 2 16 0 0.500 -256 1936 label
(2) {/Helvetica cf} 2 16 0 0.500 -288 1936 label
(1) {/Helvetica cf} 2 16 0 0.500 -320 1936 label
(0) {/Helvetica cf} 2 16 0 0.500 -352 1936 label
(1) {/Helvetica cf} 2 16 0 0.500 -384 1888 label
(2) {/Helvetica cf} 2 16 0 0.500 -384 1792 label
(3) {/Helvetica cf} 2 16 0 0.500 -384 1856 label
(4) {/Helvetica cf} 2 16 0 0.500 -384 1760 label
(6) {/Helvetica cf} 2 16 0 0.500 -384 1728 label
(5) {/Helvetica cf} 2 16 0 0.500 -384 1824 label
1 3.000 -352 1792 -288 1792 2 polygon
1 3.000 -352 1824 -224 1824 2 polygon
1 3.000 -352 1856 -160 1856 2 polygon
5 1.000 -320 1920 -320 1696 2 polygon
0 2.000 -352 1920 -352 1696 32 1696 32 1920 4 polygon
1 3.000 -32 1856 32 1856 2 polygon
1 3.000 -352 1888 -96 1888 2 polygon
1 3.000 -96 1824 32 1824 2 polygon
1 3.000 -160 1792 32 1792 2 polygon
5 1.000 -64 1920 -64 1696 2 polygon
1 3.000 -288 1728 -32 1728 2 polygon
5 1.000 -32 1920 -32 1696 2 polygon
1 3.000 -224 1760 32 1760 2 polygon
(0) {/Helvetica cf} 2 16 0 0.500 544 1936 label
(11) {/Helvetica cf} 2 16 0 0.500 512 1936 label
(10) {/Helvetica cf} 2 16 0 0.500 480 1936 label
(9) {/Helvetica cf} 2 16 0 0.500 448 1936 label
(8) {/Helvetica cf} 2 16 0 0.500 416 1936 label
(7) {/Helvetica cf} 2 16 0 0.500 384 1936 label
(6) {/Helvetica cf} 2 16 0 0.500 352 1936 label
(5) {/Helvetica cf} 2 16 0 0.500 320 1936 label
(4) {/Helvetica cf} 2 16 0 0.500 288 1936 label
(3) {/Helvetica cf} 2 16 0 0.500 256 1936 label
(2) {/Helvetica cf} 2 16 0 0.500 224 1936 label
(1) {/Helvetica cf} 2 16 0 0.500 192 1936 label
(0) {/Helvetica cf} 2 16 0 0.500 160 1936 label
(1) {/Helvetica cf} 2 16 0 0.500 128 1888 label
(2) {/Helvetica cf} 2 16 0 0.500 128 1792 label
(3) {/Helvetica cf} 2 16 0 0.500 128 1856 label
(4) {/Helvetica cf} 2 16 0 0.500 128 1760 label
(6) {/Helvetica cf} 2 16 0 0.500 128 1728 label
(5) {/Helvetica cf} 2 16 0 0.500 128 1824 label
1 3.000 160 1792 224 1792 2 polygon
1 3.000 160 1856 288 1856 2 polygon
5 1.000 192 1920 192 1696 2 polygon
0 2.000 160 1920 160 1696 544 1696 544 1920 4 polygon
1 3.000 416 1856 544 1856 2 polygon
1 3.000 160 1888 416 1888 2 polygon
1 3.000 288 1824 544 1824 2 polygon
1 3.000 352 1792 544 1792 2 polygon
5 1.000 448 1920 448 1696 2 polygon
1 3.000 480 1728 544 1728 2 polygon
5 1.000 480 1920 480 1696 2 polygon
1 3.000 224 1760 480 1760 2 polygon
(0) {/Helvetica cf} 2 16 0 0.500 32 1520 label
(11) {/Helvetica cf} 2 16 0 0.500 0 1520 label
(10) {/Helvetica cf} 2 16 0 0.500 -32 1520 label
(9) {/Helvetica cf} 2 16 0 0.500 -64 1520 label
(8) {/Helvetica cf} 2 16 0 0.500 -96 1520 label
(7) {/Helvetica cf} 2 16 0 0.500 -128 1520 label
(6) {/Helvetica cf} 2 16 0 0.500 -160 1520 label
(5) {/Helvetica cf} 2 16 0 0.500 -192 1520 label
(4) {/Helvetica cf} 2 16 0 0.500 -224 1520 label
(3) {/Helvetica cf} 2 16 0 0.500 -256 1520 label
(2) {/Helvetica cf} 2 16 0 0.500 -288 1520 label
(1) {/Helvetica cf} 2 16 0 0.500 -320 1520 label
(0) {/Helvetica cf} 2 16 0 0.500 -352 1520 label
(1) {/Helvetica cf} 2 16 0 0.500 -384 1472 label
(2) {/Helvetica cf} 2 16 0 0.500 -384 1376 label
(3) {/Helvetica cf} 2 16 0 0.500 -384 1440 label
(4) {/Helvetica cf} 2 16 0 0.500 -384 1344 label
(6) {/Helvetica cf} 2 16 0 0.500 -384 1312 label
(5) {/Helvetica cf} 2 16 0 0.500 -384 1408 label
1 3.000 -352 1344 -320 1344 2 polygon
1 3.000 -352 1376 -256 1376 2 polygon
1 3.000 -352 1408 -192 1408 2 polygon
1 3.000 -352 1440 -128 1440 2 polygon
5 1.000 -320 1504 -320 1280 2 polygon
0 2.000 -352 1504 -352 1280 32 1280 32 1504 4 polygon
1 3.000 -32 1440 32 1440 2 polygon
1 3.000 -352 1472 -64 1472 2 polygon
1 3.000 -96 1408 32 1408 2 polygon
1 3.000 -160 1376 32 1376 2 polygon
5 1.000 -64 1504 -64 1280 2 polygon
1 3.000 -288 1312 0 1312 2 polygon
5 1.000 -32 1504 -32 1280 2 polygon
1 3.000 -224 1344 32 1344 2 polygon
(0) {/Helvetica cf} 2 16 0 0.500 544 1520 label
(11) {/Helvetica cf} 2 16 0 0.500 512 1520 label
(10) {/Helvetica cf} 2 16 0 0.500 480 1520 label
(9) {/Helvetica cf} 2 16 0 0.500 448 1520 label
(8) {/Helvetica cf} 2 16 0 0.500 416 1520 label
(7) {/Helvetica cf} 2 16 0 0.500 384 1520 label
(6) {/Helvetica cf} 2 16 0 0.500 352 1520 label
(5) {/Helvetica cf} 2 16 0 0.500 320 1520 label
(4) {/Helvetica cf} 2 16 0 0.500 288 1520 label
(3) {/Helvetica cf} 2 16 0 0.500 256 1520 label
(2) {/Helvetica cf} 2 16 0 0.500 224 1520 label
(1) {/Helvetica cf} 2 16 0 0.500 192 1520 label
(0) {/Helvetica cf} 2 16 0 0.500 160 1520 label
(1) {/Helvetica cf} 2 16 0 0.500 128 1472 label
(2) {/Helvetica cf} 2 16 0 0.500 128 1376 label
(3) {/Helvetica cf} 2 16 0 0.500 128 1440 label
(4) {/Helvetica cf} 2 16 0 0.500 128 1344 label
(6) {/Helvetica cf} 2 16 0 0.500 128 1312 label
(5) {/Helvetica cf} 2 16 0 0.500 128 1408 label
1 3.000 160 1408 192 1408 2 polygon
1 3.000 160 1440 320 1440 2 polygon
5 1.000 192 1504 192 1280 2 polygon
0 2.000 160 1504 160 1280 544 1280 544 1504 4 polygon
1 3.000 416 1440 544 1440 2 polygon
1 3.000 160 1472 448 1472 2 polygon
1 3.000 288 1408 544 1408 2 polygon
1 3.000 352 1376 544 1376 2 polygon
5 1.000 448 1504 448 1280 2 polygon
1 3.000 480 1312 544 1312 2 polygon
5 1.000 480 1504 480 1280 2 polygon
1 3.000 192 1344 512 1344 2 polygon
0 2.000 -352 1088 -352 864 32 864 32 1088 4 polygon
5 1.000 -320 1088 -320 864 2 polygon
5 1.000 -288 1088 -288 864 2 polygon
5 1.000 -256 1088 -256 864 2 polygon
5 1.000 -224 1088 -224 864 2 polygon
5 1.000 -192 1088 -192 864 2 polygon
5 1.000 -160 1088 -160 864 2 polygon
5 1.000 -128 1088 -128 864 2 polygon
5 1.000 -96 1088 -96 864 2 polygon
5 1.000 -64 1088 -64 864 2 polygon
5 1.000 -32 1088 -32 864 2 polygon
5 1.000 0 1088 0 864 2 polygon
1 3.000 -352 1056 -32 1056 2 polygon
1 3.000 -352 1024 -96 1024 2 polygon
1 3.000 -32 1024 32 1024 2 polygon
1 3.000 -352 992 -160 992 2 polygon
1 3.000 -96 992 32 992 2 polygon
1 3.000 -352 960 -224 960 2 polygon
1 3.000 -160 960 32 960 2 polygon
1 3.000 -352 928 -288 928 2 polygon
1 3.000 -224 928 32 928 2 polygon
1 3.000 -288 896 32 896 2 polygon
(0) {/Helvetica cf} 2 16 0 0.500 -352 1104 label
(1) {/Helvetica cf} 2 16 0 0.500 -320 1104 label
(2) {/Helvetica cf} 2 16 0 0.500 -288 1104 label
(3) {/Helvetica cf} 2 16 0 0.500 -256 1104 label
(4) {/Helvetica cf} 2 16 0 0.500 -224 1104 label
(5) {/Helvetica cf} 2 16 0 0.500 -192 1104 label
(6) {/Helvetica cf} 2 16 0 0.500 -160 1104 label
(7) {/Helvetica cf} 2 16 0 0.500 -128 1104 label
(8) {/Helvetica cf} 2 16 0 0.500 -96 1104 label
(9) {/Helvetica cf} 2 16 0 0.500 -64 1104 label
(10) {/Helvetica cf} 2 16 0 0.500 -32 1104 label
(11) {/Helvetica cf} 2 16 0 0.500 0 1104 label
(0) {/Helvetica cf} 2 16 0 0.500 32 1104 label
(1) {/Helvetica cf} 2 16 0 0.500 -384 1056 label
(2) {/Helvetica cf} 2 16 0 0.500 -384 960 label
(3) {/Helvetica cf} 2 16 0 0.500 -384 1024 label
(4) {/Helvetica cf} 2 16 0 0.500 -384 928 label
(5) {/Helvetica cf} 2 16 0 0.500 -384 992 label
(6) {/Helvetica cf} 2 16 0 0.500 -384 896 label
($\\beta=\\frac{5}{6}$) {/Helvetica cf} 2 144 0 2.000 -16 784 label
(0) {/Helvetica cf} 2 16 0 0.500 544 1104 label
(11) {/Helvetica cf} 2 16 0 0.500 512 1104 label
(10) {/Helvetica cf} 2 16 0 0.500 480 1104 label
(9) {/Helvetica cf} 2 16 0 0.500 448 1104 label
(8) {/Helvetica cf} 2 16 0 0.500 416 1104 label
(7) {/Helvetica cf} 2 16 0 0.500 384 1104 label
(6) {/Helvetica cf} 2 16 0 0.500 352 1104 label
(5) {/Helvetica cf} 2 16 0 0.500 320 1104 label
(4) {/Helvetica cf} 2 16 0 0.500 288 1104 label
(3) {/Helvetica cf} 2 16 0 0.500 256 1104 label
(2) {/Helvetica cf} 2 16 0 0.500 224 1104 label
(1) {/Helvetica cf} 2 16 0 0.500 192 1104 label
(0) {/Helvetica cf} 2 16 0 0.500 160 1104 label
(1) {/Helvetica cf} 2 16 0 0.500 128 1056 label
(2) {/Helvetica cf} 2 16 0 0.500 128 960 label
(3) {/Helvetica cf} 2 16 0 0.500 128 1024 label
(4) {/Helvetica cf} 2 16 0 0.500 128 928 label
(6) {/Helvetica cf} 2 16 0 0.500 128 896 label
(5) {/Helvetica cf} 2 16 0 0.500 128 992 label
1 3.000 160 960 288 960 2 polygon
1 3.000 160 992 224 992 2 polygon
1 3.000 160 1024 352 1024 2 polygon
5 1.000 192 1088 192 864 2 polygon
0 2.000 160 1088 160 864 544 864 544 1088 4 polygon
1 3.000 416 1024 544 1024 2 polygon
1 3.000 160 1056 480 1056 2 polygon
1 3.000 288 992 544 992 2 polygon
1 3.000 352 960 544 960 2 polygon
5 1.000 448 1088 448 864 2 polygon
1 3.000 480 896 544 896 2 polygon
5 1.000 480 1088 480 864 2 polygon
1 3.000 224 928 544 928 2 polygon
($\\beta=\\frac{2}{3}$) {/Helvetica cf} 2 144 0 2.000 -16 1616 label
($\\beta=\\frac{3}{4}$) {/Helvetica cf} 2 144 0 2.000 -16 1200 label
5 1.000 224 1088 224 864 2 polygon
5 1.000 256 1088 256 864 2 polygon
5 1.000 288 1088 288 864 2 polygon
5 1.000 320 1088 320 864 2 polygon
5 1.000 352 1088 352 864 2 polygon
5 1.000 384 1088 384 864 2 polygon
5 1.000 416 1088 416 864 2 polygon
5 1.000 512 1088 512 864 2 polygon
5 1.000 224 1504 224 1280 2 polygon
5 1.000 256 1504 256 1280 2 polygon
5 1.000 288 1504 288 1280 2 polygon
5 1.000 320 1504 320 1280 2 polygon
5 1.000 352 1504 352 1280 2 polygon
5 1.000 384 1504 384 1280 2 polygon
5 1.000 416 1504 416 1280 2 polygon
5 1.000 512 1504 512 1280 2 polygon
5 1.000 224 1920 224 1696 2 polygon
5 1.000 256 1920 256 1696 2 polygon
5 1.000 288 1920 288 1696 2 polygon
5 1.000 320 1920 320 1696 2 polygon
5 1.000 352 1920 352 1696 2 polygon
5 1.000 384 1920 384 1696 2 polygon
5 1.000 416 1920 416 1696 2 polygon
5 1.000 512 1920 512 1696 2 polygon
5 1.000 512 2336 512 2112 2 polygon
5 1.000 224 2336 224 2112 2 polygon
5 1.000 256 2336 256 2112 2 polygon
5 1.000 288 2336 288 2112 2 polygon
5 1.000 320 2336 320 2112 2 polygon
5 1.000 352 2336 352 2112 2 polygon
5 1.000 384 2336 384 2112 2 polygon
5 1.000 416 2336 416 2112 2 polygon
5 1.000 0 1920 0 1696 2 polygon
5 1.000 -288 1920 -288 1696 2 polygon
5 1.000 -256 1920 -256 1696 2 polygon
5 1.000 -224 1920 -224 1696 2 polygon
5 1.000 -192 1920 -192 1696 2 polygon
5 1.000 -160 1920 -160 1696 2 polygon
5 1.000 -128 1920 -128 1696 2 polygon
5 1.000 -96 1920 -96 1696 2 polygon
5 1.000 -288 1504 -288 1280 2 polygon
5 1.000 -256 1504 -256 1280 2 polygon
5 1.000 -224 1504 -224 1280 2 polygon
5 1.000 -192 1504 -192 1280 2 polygon
5 1.000 -160 1504 -160 1280 2 polygon
5 1.000 -128 1504 -128 1280 2 polygon
5 1.000 -96 1504 -96 1280 2 polygon
5 1.000 0 1504 0 1280 2 polygon
1 3.000 160 1728 352 1728 2 polygon
1 3.000 160 1376 256 1376 2 polygon
1 3.000 160 1312 384 1312 2 polygon
1 3.000 160 896 416 896 2 polygon
pgsave restore showpage

%%Trailer
XCIRCsave restore
%%EOF
