%!PS-Adobe-3.0 EPSF-3.0
%%Title: esquema_robot_plano_2limb.eps
%%Creator: XCircuit v3.6 rev135
%%CreationDate: Thu Sep  1 13:01:33 2011
%%Pages: 1
%%BoundingBox: 68 68 310 202
%%DocumentNeededResources: font Helvetica 
%%EndComments
%%BeginProlog
%
%  PostScript prolog for output from xcircuit
%  Version: 3.3
%
%  Electrical circuit (and otherwise general) drawing program
%
%  Written by Tim Edwards 8/5/93--7/13/05  (tim.edwards@multigig.com)
%  The Johns Hopkins University (1993-2004)
%  MultiGiG, Inc. (2004-present)
%
%%BeginResource: procset XCIRCproc 3.3 0
%
% supporting definitions --- these are the primary xcircuit types.

/XCIRCsave save def
/topmat matrix currentmatrix def

/fontslant { /slant exch def [1 0 slant 1 0 0] 
    exch findfont exch makefont dup length dict /ndict exch def
    { 1 index /FID ne { ndict 3 1 roll put } { pop pop } ifelse } forall
    ndict definefont pop} def
/ul { dup type /stringtype eq showflag 1 eq and { gsave 
   currentpoint topmat setmatrix 0 0 moveto 2 index stringwidth pop (_)
   false charpath flattenpath pathbbox grestore exch pop 1 index
   sub setlinewidth exch pop currentpoint 3 -1 roll add moveto 0
   rlineto stroke moveto } if } def
/ol { dup type /stringtype eq showflag 1 eq and { gsave gsave
   currentpoint topmat setmatrix 2 index stringwidth pop 3 index
   true charpath flattenpath pathbbox grestore exch pop
   exch pop topmat setmatrix (_) true charpath pathbbox grestore
   exch pop 1 index sub setlinewidth exch pop currentpoint
   exch 4 1 roll exch sub add moveto pop 0 rlineto stroke
   moveto } if } def
/stW { gsave currentpoint newpath moveto true charpath flattenpath
	pathbbox pop exch pop sub grestore } def
/Ts {mark Tabs aload pop counttomark 1 add array astore /Tabs exch def Tabs
	0 currentpoint pop put} def
/Tbn {mark Tabs aload pop counttomark dup 2 add 1 roll cleartomark 1 sub} def
/Tb { 0 1 Tbn {Tabs exch get dup currentpoint pop lt
	{currentpoint exch pop moveto exit} {pop} ifelse } for } def
/Tf { Tbn -1 0 {Tabs exch get dup currentpoint pop gt
	{currentpoint exch pop moveto exit} {pop} ifelse } for } def
/qS { (aa) stW (a a) stW sub 4 div 0 Kn } def
/hS { qS qS } def
/pspc 0 def
/cf0 { scalefont setfont } bind def
/Kn { dup kY add /kY exch def rmoveto } bind def
/ss { /fscale fscale 0.67 mul def currentfont 0.67 cf0 0 fscale0 fscale mul
	0.33 mul neg Kn} def
/Ss { /fscale fscale 0.67 mul def currentfont 0.67 cf0 0 fscale0 fscale mul
	0.67 mul Kn } def
/ns { 0 kY neg Kn /kY 0 def /fscale 1.0 def xfont0 1.0 cf0 } def
/CR { ns 0 /Bline Bline fscale0 neg add def Bline moveto } def
/cf { dup type /realtype ne {1.0} if exch findfont exch kY 0 eq
	{ 40 mul dup /fscale0 exch def cf0 /xfont0 currentfont def}
	{fscale0 mul fscale mul cf0} ifelse } def
/ctmk { counttomark dup 2 add -1 roll pop } bind def
/label { gsave translate 0 0 moveto dup scale neg /rotval exch def
	/just exch def just 384 and 0 gt {/mshow {pop} def} {/mshow {show}
	def} ifelse just 16 and 0 gt {gsave rotval rotate 0 1 dtransform
	gsave pagemat setmatrix idtransform exch grestore 1 0 dtransform
	gsave pagemat setmatrix idtransform exch grestore dup abs 1e-9 lt
	{pop mul 0 gt} {3 1 roll pop pop 0 lt} ifelse grestore {-1 /rotval
	rotval neg def /just just dup 3 and 1 ne {3 xor} if def} {1} ifelse
	exch -1e-9 lt {-1 /rotval rotval neg def /just just dup 12 and
	4 ne {12 xor} if def} {1} ifelse scale } if /showflag 0 def
	/fspc pspc def /Bline 0 def /Tabs 0 array def /fscale 1.0 def
	/kY 0 def gsave dup 1 add copy 0 exch 1 0 dtransform exch atan rotate
	{exch dup type /stringtype eq {true charpath flattenpath} {dup type
	/arraytype eq {exec} {12 string cvs true charpath flattenpath} ifelse}
	ifelse} repeat pop pathbbox grestore 3 -1 roll pop 3 1 roll just
	1 and 0 gt {just 2 and 0 gt {exch pop neg fspc sub} {exch sub 0.5
	mul neg} ifelse} {pop neg fspc add} ifelse exch Bline exch just 4
	and 0 gt {just 8 and 0 gt {exch pop neg fspc sub} {add 0.5 mul neg}
	ifelse} {pop neg fspc add} ifelse rotval rotate Kn currentpoint
	translate /showflag 1 def /Bline 0 def /Tabs 0 array def /fscale
	1.0 def /kY 0 def {dup type /stringtype eq {mshow} {dup type
	/arraytype eq {exec} {12 string cvs mshow} ifelse} ifelse} repeat
	grestore } def
/pinlabel { 4 index 32 and 0 ne hlevel 0 eq or { /pspc 10 def label
	/pspc 0 def } { pop pop pop pop pop {pop} repeat } ifelse } def
/pinglobal { pinlabel } def
/infolabel { pinlabel } def
/graphic { gsave 4 index cvx exec /DataSource get resetfile translate
	0 0 moveto neg rotate dup scale cvx exec image grestore } def

/scb { setrgbcolor } bind def  /sce { defColor aload pop scb } bind def
/cRedef {/defColor currentcolor 3 array astore def} def
/begingate {dup type /dicttype ne {1 dict} if begin	% default params
	dup type /dicttype ne {1 dict} if begin		% instanced params
	/hlevel hlevel 1 add def /defColor currentcolor sce 3 array
	astore def gsave sce translate 0 0 moveto neg rotate dup abs scale
	} bind def
/endgate { /hlevel hlevel 1 sub def grestore defColor aload pop cRedef
	scb end end} bind def

/hlevel 0 def
/tmpa [1 0 0 1 0 0] def
/gar {8 8 true tmpa {<c0 c0 00 00 0c 0c 00 00>} imagemask} bind
{8 8 true tmpa {<30 70 60 02 03 07 06 20>} imagemask} bind
{8 8 true tmpa {<0c 1e 1e 0c c0 e1 e1 c0>} imagemask} bind
{8 8 true tmpa {<0f 0f 0f 0f f0 f0 f0 f0>} imagemask} bind
{8 8 true tmpa {<3f f3 e1 e1 f3 3f 1e 1e>} imagemask} bind
{8 8 true tmpa {<df cf 8f 9f fd fc f8 f9>} imagemask} bind
{8 8 true tmpa {<ff 3f 3f ff ff f3 f3 ff>} imagemask} bind 7 array astore def
/ppaint { gsave clip tmpa dup setmatrix pathbbox neg exch neg 4 2 roll
  neg 4 -1 roll 2 copy gt {exch} if 8 div ceiling 8 mul 4 2 roll neg 2 copy
  gt {exch} if 8 div ceiling 8 mul 3 -1 roll -8 5 -1 roll
  { 3 index exch 5 exch put dup -8 3 index { 3 index
  exch 4 exch put 3 index exec } for } for pop pop pop pop grestore } bind def
/setstyles {
  currentlinewidth mul setlinewidth /style exch def
  style 1 and 0 gt not {closepath} if
  style 1024 and 0 gt {2 setlinecap} if
  style 2 and 0 gt {currentlinewidth 4 mul dup 2 array astore 0 setdash} if
  style 4 and 0 gt {0.5 currentlinewidth 4 mul 2 array astore 0 setdash} if
  gsave style 16 and 0 gt { style 224 and -5 bitshift style 256 and 0 gt {
  7 exch sub 8 div dup 1 exch sub currentrgbcolor 3 array astore
  {3 copy mul add 4 1 roll pop} forall pop pop setrgbcolor eofill}
  {dup 7 lt {gar exch get ppaint} {pop eofill} ifelse} ifelse}
  {style 256 and 0 gt {1 setgray eofill} if} ifelse grestore style 8 and 0 gt 
  style 512 eq or {newpath} {stroke} ifelse grestore} def     

/polygon { gsave /num exch def moveto num 1 sub {lineto} repeat setstyles } def
/xcarc   { gsave newpath arc setstyles } def
/elb { matrix currentmatrix 7 -1 roll 7 -1 roll translate 5 1 roll 4 -1 roll
	3 index div 1 scale } def
/ele { 0 4 1 roll 0 4 1 roll } bind def
/ellipse { gsave elb newpath ele arc setmatrix setstyles } def
/pellip  { elb ele arc setmatrix } def
/nellip  { elb ele arcn setmatrix } def
/spline  { gsave moveto curveto setstyles } def
/polyc   { {lineto} repeat } bind def
/beginpath { gsave moveto } bind def
/endpath { setstyles } bind def
/bop	 { 1 setlinecap 0 setlinejoin 6 setmiterlimit 0 0 0 scb cRedef } def
/psinsertion {/PSobj save def /showpage {} def /setpagedevice {pop} def bop
	rotate translate dup scale} def
/end_insert {PSobj restore} def
/setpagemat {/pagemat matrix currentmatrix def} def
/inchscale  {setpagemat 0.375 mul dup scale} def
/cmscale    {setpagemat 0.35433071 mul dup scale} def

%%EndResource
%%EndProlog

% XCircuit output starts here.

%%BeginSetup

/generic::tap {
% trivial
<</@in (bus\(0:7\)) /@out (bus\(0\)) >> begingate
496 1.000 0 8 16 0 0 -8 3 polygon
1.000 0.000 0.000 scb
mark @out {/Helvetica cf} ctmk 20 0 1.000 16 0 pinlabel
mark @in {/Helvetica cf} ctmk 23 0 1.000 0 0 pinlabel
endgate
} def

/generic::arrowhead {
% nonetwork
begingate
8 -28 beginpath
3 -18 3 -15 0 0 curveto
-3 -15 -3 -18 -8 -28 curveto
-2 -26 2 -26 8 -28 curveto
249 
1.000 endpath
endgate
} def

/::terna {
begingate
($x$) {/Helvetica cf} 2 144 0 1.000 80 -112 label
1.000 90 128 -64 generic::arrowhead
1 1.000 -32 -64 128 -64 2 polygon
1 1.000 -32 -64 45 43 -64.463 180.000 ellipse
($\\phi$) {/Helvetica cf} 2 144 0 1.000 -129 -53 label
1.000 180 -76 -86 generic::arrowhead
($y$) {/Helvetica cf} 2 144 0 1.000 -112 48 label
1 1.000 -32 96 -32 -64 2 polygon
1.000 360 -32 112 generic::arrowhead
endgate
} def


%%EndSetup

%%Page: 1 1
%%PageOrientation: Portrait
/pgsave save def bop
0.3688 inchscale
2.6000 setlinewidth 1023 888 translate

369 2.000 0 0 576 160 128 544 0 0 4 polygon
1 2.000 -276 -336 -384 80 0 0 3 polygon
497 1.000 0 0 16 0.000 360.000 xcarc
497 1.000 -384 80 16 0.000 360.000 xcarc
1 1.000 0 0 592 0 2 polygon
225 1.000 448 48 432 96 416 112 416 0 spline
1.000 225 101 80 generic::tap
497 1.000 227 226 3 0.000 360.000 xcarc
1 1.000 0 0 224 224 2 polygon
1.000 45 224 224 generic::arrowhead
3 1.000 -384 80 224 -48 2 polygon
225 1.000 0 0 128 347.471 405.000 xcarc
3 1.000 -276 -335 -444 314 2 polygon
225 1.000 -385 82 118 348.959 464.410 xcarc
225 1.000 -272 -352 96 0.000 104.931 xcarc
1.000 165 -280 -255 generic::tap
1.000 165 -398 200 generic::tap
($\\phi$) {/Helvetica cf} 2 144 0 1.000 442 50 label
($\\psi_1$) {/Helvetica cf} 2 144 0 1.000 -204 -260 label
($\\overline{a_1}$) {/Helvetica cf} 2 144 0 1.000 -307 -150 label
($A_1$) {/Helvetica cf} 2 144 0 1.000 -401 -346 label
($B_1$) {/Helvetica cf} 2 144 0 1.000 -503 38 label
($C_1$) {/Helvetica cf} 2 144 0 1.000 -8 -55 label
( $\\theta_1$) {/Helvetica cf} 2 144 0 1.000 126 70 label
($D$) {/Helvetica cf} 2 144 0 1.000 223 252 label
1 2.000 912 -11 575 159 2 polygon
1 2.000 911 -24 484 -134 2 polygon
497 1.000 576 160 16 0.000 360.000 xcarc
3 1.000 948 -13 1190 49 2 polygon
3 1.000 914 -10 384 256 2 polygon
1 1.000 576 160 227 226 2 polygon
1.000 285 230 226 generic::arrowhead
1 1.000 576 160 157 153.328 169.196 xcarc
1.000 120 821 54 generic::tap
1.000 255 677 -102 generic::tap
1.000 105 426 204 generic::tap
($\\varphi_1$) {/Helvetica cf} 2 144 0 1.000 -287 172 label
($\\varphi_2$) {/Helvetica cf} 2 144 0 1.000 904 142 label
($\\psi_2$) {/Helvetica cf} 2 144 0 1.000 702 -125 label
( $\\theta_2$) {/Helvetica cf} 2 144 0 1.000 343 216 label
($A_2$) {/Helvetica cf} 2 144 0 1.000 463 -208 label
($C_2$) {/Helvetica cf} 2 144 0 1.000 589 184 label
($B_2$) {/Helvetica cf} 2 144 0 1.000 950 -55 label
($\\overline{b_1}$) {/Helvetica cf} 2 144 0 1.000 -230 61 label
($\\overline{b_2}$) {/Helvetica cf} 2 144 0 1.000 693 115 label
($\\overline{a_2}$) {/Helvetica cf} 2 144 0 1.000 621 -61 label
1 1.000 928 -16 16 0.000 360.000 xcarc
1 1.000 467 -141 16 0.000 360.000 xcarc
1 1.000 -272 -352 16 0.000 360.000 xcarc
3 1.000 486 -147 822 -147 2 polygon
1.000 0 -224 400 ::terna
3 1.000 -256 -352 80 -352 2 polygon
1 1.000 464 -141 218 358.622 374.640 xcarc
1 1.000 930 -14 129 12.645 153.875 xcarc
($\\overline{e_1}$) {/Helvetica cf} 2 144 0 1.000 80 176 label
($\\overline{e_2}$) {/Helvetica cf} 2 144 0 1.000 320 144 label
pgsave restore showpage

%%Trailer
XCIRCsave restore
%%EOF
