%!PS-Adobe-3.0
%Produced by poppler pdftops version: 0.18.4 (http://poppler.freedesktop.org)
%%Creator: XCircuit v3.6 rev135
%%LanguageLevel: 2
%%DocumentSuppliedResources: (atend)
%%DocumentMedia: plain 87 151 0 () ()
%%BoundingBox: 0 0 87 151
%%Pages: 1
%%EndComments
%%BeginDefaults
%%PageMedia: plain
%%EndDefaults
%%BeginProlog
%%BeginResource: procset xpdf 3.00 0
%%Copyright: Copyright 1996-2004 Glyph & Cog, LLC
/xpdf 75 dict def xpdf begin
% PDF special state
/pdfDictSize 15 def
/pdfSetup {
  3 1 roll 2 array astore
  /setpagedevice where {
    pop 3 dict begin
      /PageSize exch def
      /ImagingBBox null def
      /Policies 1 dict dup begin /PageSize 3 def end def
      { /Duplex true def } if
    currentdict end setpagedevice
  } {
    pop pop
  } ifelse
} def
/pdfStartPage {
  pdfDictSize dict begin
  /pdfFillCS [] def
  /pdfFillXform {} def
  /pdfStrokeCS [] def
  /pdfStrokeXform {} def
  /pdfFill [0] def
  /pdfStroke [0] def
  /pdfFillOP false def
  /pdfStrokeOP false def
  /pdfLastFill false def
  /pdfLastStroke false def
  /pdfTextMat [1 0 0 1 0 0] def
  /pdfFontSize 0 def
  /pdfCharSpacing 0 def
  /pdfTextRender 0 def
  /pdfPatternCS false def
  /pdfTextRise 0 def
  /pdfWordSpacing 0 def
  /pdfHorizScaling 1 def
  /pdfTextClipPath [] def
} def
/pdfEndPage { end } def
% PDF color state
/cs { /pdfFillXform exch def dup /pdfFillCS exch def
      setcolorspace } def
/CS { /pdfStrokeXform exch def dup /pdfStrokeCS exch def
      setcolorspace } def
/sc { pdfLastFill not { pdfFillCS setcolorspace } if
      dup /pdfFill exch def aload pop pdfFillXform setcolor
     /pdfLastFill true def /pdfLastStroke false def } def
/SC { pdfLastStroke not { pdfStrokeCS setcolorspace } if
      dup /pdfStroke exch def aload pop pdfStrokeXform setcolor
     /pdfLastStroke true def /pdfLastFill false def } def
/op { /pdfFillOP exch def
      pdfLastFill { pdfFillOP setoverprint } if } def
/OP { /pdfStrokeOP exch def
      pdfLastStroke { pdfStrokeOP setoverprint } if } def
/fCol {
  pdfLastFill not {
    pdfFillCS setcolorspace
    pdfFill aload pop pdfFillXform setcolor
    pdfFillOP setoverprint
    /pdfLastFill true def /pdfLastStroke false def
  } if
} def
/sCol {
  pdfLastStroke not {
    pdfStrokeCS setcolorspace
    pdfStroke aload pop pdfStrokeXform setcolor
    pdfStrokeOP setoverprint
    /pdfLastStroke true def /pdfLastFill false def
  } if
} def
% build a font
/pdfMakeFont {
  4 3 roll findfont
  4 2 roll matrix scale makefont
  dup length dict begin
    { 1 index /FID ne { def } { pop pop } ifelse } forall
    /Encoding exch def
    currentdict
  end
  definefont pop
} def
/pdfMakeFont16 {
  exch findfont
  dup length dict begin
    { 1 index /FID ne { def } { pop pop } ifelse } forall
    /WMode exch def
    currentdict
  end
  definefont pop
} def
% graphics state operators
/q { gsave pdfDictSize dict begin } def
/Q {
  end grestore
  /pdfLastFill where {
    pop
    pdfLastFill {
      pdfFillOP setoverprint
    } {
      pdfStrokeOP setoverprint
    } ifelse
  } if
} def
/cm { concat } def
/d { setdash } def
/i { setflat } def
/j { setlinejoin } def
/J { setlinecap } def
/M { setmiterlimit } def
/w { setlinewidth } def
% path segment operators
/m { moveto } def
/l { lineto } def
/c { curveto } def
/re { 4 2 roll moveto 1 index 0 rlineto 0 exch rlineto
      neg 0 rlineto closepath } def
/h { closepath } def
% path painting operators
/S { sCol stroke } def
/Sf { fCol stroke } def
/f { fCol fill } def
/f* { fCol eofill } def
% clipping operators
/W { clip newpath } def
/W* { eoclip newpath } def
/Ws { strokepath clip newpath } def
% text state operators
/Tc { /pdfCharSpacing exch def } def
/Tf { dup /pdfFontSize exch def
      dup pdfHorizScaling mul exch matrix scale
      pdfTextMat matrix concatmatrix dup 4 0 put dup 5 0 put
      exch findfont exch makefont setfont } def
/Tr { /pdfTextRender exch def } def
/Tp { /pdfPatternCS exch def } def
/Ts { /pdfTextRise exch def } def
/Tw { /pdfWordSpacing exch def } def
/Tz { /pdfHorizScaling exch def } def
% text positioning operators
/Td { pdfTextMat transform moveto } def
/Tm { /pdfTextMat exch def } def
% text string operators
/cshow where {
  pop
  /cshow2 {
    dup {
      pop pop
      1 string dup 0 3 index put 3 index exec
    } exch cshow
    pop pop
  } def
}{
  /cshow2 {
    currentfont /FontType get 0 eq {
      0 2 2 index length 1 sub {
        2 copy get exch 1 add 2 index exch get
        2 copy exch 256 mul add
        2 string dup 0 6 5 roll put dup 1 5 4 roll put
        3 index exec
      } for
    } {
      dup {
        1 string dup 0 3 index put 3 index exec
      } forall
    } ifelse
    pop pop
  } def
} ifelse
/awcp {
  exch {
    false charpath
    5 index 5 index rmoveto
    6 index eq { 7 index 7 index rmoveto } if
  } exch cshow2
  6 {pop} repeat
} def
/Tj {
  fCol
  1 index stringwidth pdfTextMat idtransform pop
  sub 1 index length dup 0 ne { div } { pop pop 0 } ifelse
  pdfWordSpacing pdfHorizScaling mul 0 pdfTextMat dtransform 32
  4 3 roll pdfCharSpacing pdfHorizScaling mul add 0
  pdfTextMat dtransform
  6 5 roll Tj1
} def
/Tj16 {
  fCol
  2 index stringwidth pdfTextMat idtransform pop
  sub exch div
  pdfWordSpacing pdfHorizScaling mul 0 pdfTextMat dtransform 32
  4 3 roll pdfCharSpacing pdfHorizScaling mul add 0
  pdfTextMat dtransform
  6 5 roll Tj1
} def
/Tj16V {
  fCol
  2 index stringwidth pdfTextMat idtransform exch pop
  sub exch div
  0 pdfWordSpacing pdfTextMat dtransform 32
  4 3 roll pdfCharSpacing add 0 exch
  pdfTextMat dtransform
  6 5 roll Tj1
} def
/Tj1 {
  0 pdfTextRise pdfTextMat dtransform rmoveto
  currentpoint 8 2 roll
  pdfTextRender 1 and 0 eq pdfPatternCS not and {
    6 copy awidthshow
  } if
  pdfTextRender 3 and dup 1 eq exch 2 eq or {
    7 index 7 index moveto
    6 copy
    currentfont /FontType get 3 eq { fCol } { sCol } ifelse
    false awcp currentpoint stroke moveto
  } if
  pdfTextRender 4 and 0 ne pdfPatternCS or {
    8 6 roll moveto
    false awcp
    /pdfTextClipPath [ pdfTextClipPath aload pop
      {/moveto cvx}
      {/lineto cvx}
      {/curveto cvx}
      {/closepath cvx}
    pathforall ] def
    currentpoint newpath moveto
  } {
    8 {pop} repeat
  } ifelse
  0 pdfTextRise neg pdfTextMat dtransform rmoveto
} def
/TJm { pdfFontSize 0.001 mul mul neg 0
       pdfTextMat dtransform rmoveto } def
/TJmV { pdfFontSize 0.001 mul mul neg 0 exch
        pdfTextMat dtransform rmoveto } def
/Tclip { pdfTextClipPath cvx exec clip newpath
         /pdfTextClipPath [] def } def
/Tclip* { pdfTextClipPath cvx exec eoclip newpath
         /pdfTextClipPath [] def } def
% Level 2 image operators
/pdfImBuf 100 string def
/pdfIm {
  image
  { currentfile pdfImBuf readline
    not { pop exit } if
    (%-EOD-) eq { exit } if } loop
} def
/pdfImM {
  fCol imagemask
  { currentfile pdfImBuf readline
    not { pop exit } if
    (%-EOD-) eq { exit } if } loop
} def
/pr { 2 index 2 index 3 2 roll putinterval 4 add } def
/pdfImClip {
  gsave
  0 2 4 index length 1 sub {
    dup 4 index exch 2 copy
    get 5 index div put
    1 add 3 index exch 2 copy
    get 3 index div put
  } for
  pop pop rectclip
} def
/pdfImClipEnd { grestore } def
% shading operators
/colordelta {
  false 0 1 3 index length 1 sub {
    dup 4 index exch get 3 index 3 2 roll get sub abs 0.004 gt {
      pop true
    } if
  } for
  exch pop exch pop
} def
/funcCol { func n array astore } def
/funcSH {
  dup 0 eq {
    true
  } {
    dup 6 eq {
      false
    } {
      4 index 4 index funcCol dup
      6 index 4 index funcCol dup
      3 1 roll colordelta 3 1 roll
      5 index 5 index funcCol dup
      3 1 roll colordelta 3 1 roll
      6 index 8 index funcCol dup
      3 1 roll colordelta 3 1 roll
      colordelta or or or
    } ifelse
  } ifelse
  {
    1 add
    4 index 3 index add 0.5 mul exch 4 index 3 index add 0.5 mul exch
    6 index 6 index 4 index 4 index 4 index funcSH
    2 index 6 index 6 index 4 index 4 index funcSH
    6 index 2 index 4 index 6 index 4 index funcSH
    5 3 roll 3 2 roll funcSH pop pop
  } {
    pop 3 index 2 index add 0.5 mul 3 index  2 index add 0.5 mul
    funcCol sc
    dup 4 index exch mat transform m
    3 index 3 index mat transform l
    1 index 3 index mat transform l
    mat transform l pop pop h f*
  } ifelse
} def
/axialCol {
  dup 0 lt {
    pop t0
  } {
    dup 1 gt {
      pop t1
    } {
      dt mul t0 add
    } ifelse
  } ifelse
  func n array astore
} def
/axialSH {
  dup 0 eq {
    true
  } {
    dup 8 eq {
      false
    } {
      2 index axialCol 2 index axialCol colordelta
    } ifelse
  } ifelse
  {
    1 add 3 1 roll 2 copy add 0.5 mul
    dup 4 3 roll exch 4 index axialSH
    exch 3 2 roll axialSH
  } {
    pop 2 copy add 0.5 mul
    axialCol sc
    exch dup dx mul x0 add exch dy mul y0 add
    3 2 roll dup dx mul x0 add exch dy mul y0 add
    dx abs dy abs ge {
      2 copy yMin sub dy mul dx div add yMin m
      yMax sub dy mul dx div add yMax l
      2 copy yMax sub dy mul dx div add yMax l
      yMin sub dy mul dx div add yMin l
      h f*
    } {
      exch 2 copy xMin sub dx mul dy div add xMin exch m
      xMax sub dx mul dy div add xMax exch l
      exch 2 copy xMax sub dx mul dy div add xMax exch l
      xMin sub dx mul dy div add xMin exch l
      h f*
    } ifelse
  } ifelse
} def
/radialCol {
  dup t0 lt {
    pop t0
  } {
    dup t1 gt {
      pop t1
    } if
  } ifelse
  func n array astore
} def
/radialSH {
  dup 0 eq {
    true
  } {
    dup 8 eq {
      false
    } {
      2 index dt mul t0 add radialCol
      2 index dt mul t0 add radialCol colordelta
    } ifelse
  } ifelse
  {
    1 add 3 1 roll 2 copy add 0.5 mul
    dup 4 3 roll exch 4 index radialSH
    exch 3 2 roll radialSH
  } {
    pop 2 copy add 0.5 mul dt mul t0 add
    radialCol sc
    encl {
      exch dup dx mul x0 add exch dup dy mul y0 add exch dr mul r0 add
      0 360 arc h
      dup dx mul x0 add exch dup dy mul y0 add exch dr mul r0 add
      360 0 arcn h f
    } {
      2 copy
      dup dx mul x0 add exch dup dy mul y0 add exch dr mul r0 add
      a1 a2 arcn
      dup dx mul x0 add exch dup dy mul y0 add exch dr mul r0 add
      a2 a1 arcn h
      dup dx mul x0 add exch dup dy mul y0 add exch dr mul r0 add
      a1 a2 arc
      dup dx mul x0 add exch dup dy mul y0 add exch dr mul r0 add
      a2 a1 arc h f
    } ifelse
  } ifelse
} def
end
%%EndResource
%%EndProlog
%%BeginSetup
xpdf begin
87 151 false pdfSetup
%%EndSetup
%%Page: 1 1
%%BeginPageSetup
%%PageOrientation: Portrait
pdfStartPage
0 0 87 151 re W
%%EndPageSetup
[] 0 d
1 i
0 j
0 J
10 M
1 w
/DeviceGray {} cs
[0] sc
/DeviceGray {} CS
[0] SC
false op
false OP
{} settransfer
q
q
[0.1 0 0 0.1 0 0] cm
9.50235 w
6 M
1 J
/DeviceRGB {} CS
[0 0 0] SC
507.793 215.414 m
156.938 1267.98 l
507.793 917.125 l
S
624.746 1034.08 m
507.793 917.125 l
S
/DeviceRGB {} cs
[0 0 0] sc
650.328 1034.08 m
650.328 1048.21 638.875 1059.66 624.746 1059.66 c
610.617 1059.66 599.164 1048.21 599.164 1034.08 c
599.164 1019.95 610.617 1008.5 624.746 1008.5 c
638.875 1008.5 650.328 1019.95 650.328 1034.08 c
f*
650.328 1034.08 m
650.328 1048.21 638.875 1059.66 624.746 1059.66 c
610.617 1059.66 599.164 1048.21 599.164 1034.08 c
599.164 1019.95 610.617 1008.5 624.746 1008.5 c
638.875 1008.5 650.328 1019.95 650.328 1034.08 c
S
182.52 1267.98 m
182.52 1282.11 171.066 1293.57 156.938 1293.57 c
142.809 1293.57 131.355 1282.11 131.355 1267.98 c
131.355 1253.85 142.809 1242.4 156.938 1242.4 c
171.066 1242.4 182.52 1253.85 182.52 1267.98 c
f*
182.52 1267.98 m
182.52 1282.11 171.066 1293.57 156.938 1293.57 c
142.809 1293.57 131.355 1282.11 131.355 1267.98 c
131.355 1253.85 142.809 1242.4 156.938 1242.4 c
171.066 1242.4 182.52 1253.85 182.52 1267.98 c
S
533.379 215.414 m
533.379 229.543 521.922 240.996 507.793 240.996 c
493.664 240.996 482.211 229.543 482.211 215.414 c
482.211 201.285 493.664 189.832 507.793 189.832 c
521.922 189.832 533.379 201.285 533.379 215.414 c
f*
533.379 215.414 m
533.379 229.543 521.922 240.996 507.793 240.996 c
493.664 240.996 482.211 229.543 482.211 215.414 c
482.211 201.285 493.664 189.832 507.793 189.832 c
521.922 189.832 533.379 201.285 533.379 215.414 c
S
533.379 917.125 m
533.379 931.254 521.922 942.707 507.793 942.707 c
493.664 942.707 482.211 931.254 482.211 917.125 c
482.211 902.996 493.664 891.543 507.793 891.543 c
521.922 891.543 533.379 902.996 533.379 917.125 c
f*
533.379 917.125 m
533.379 931.254 521.922 942.707 507.793 942.707 c
493.664 942.707 482.211 931.254 482.211 917.125 c
482.211 902.996 493.664 891.543 507.793 891.543 c
521.922 891.543 533.379 902.996 533.379 917.125 c
S
[38.0094 38.0094] 0 d
273.891 1267.98 m
39.9844 1267.98 l
S
683.223 917.125 m
390.84 917.125 l
S
624.746 1209.5 m
624.746 975.602 l
S
624.746 215.414 m
390.84 215.414 l
S
507.793 273.891 m
507.793 39.9844 l
S
624.746 332.367 m
390.84 98.4609 l
S
[] 0 d
98.4609 1209.5 m
39.9844 1092.55 39.9844 1443.41 98.4609 1326.46 c
S
390.84 156.938 m
332.367 39.9844 332.367 390.84 390.84 273.891 c
S
566.27 332.367 m
445.664 387.188 796.52 387.188 683.223 332.367 c
S
566.27 1209.5 m
445.664 1154.68 796.52 1154.68 683.223 1209.5 c
S
449.316 98.4609 m
328.711 43.6406 679.566 43.6406 566.27 98.4609 c
S
383.531 167.902 m
394.496 197.141 l
398.152 160.594 l
383.531 164.246 l
f*
383.531 167.902 m
394.496 197.141 l
398.152 160.594 l
383.531 164.246 l
S
562.613 91.1523 m
537.031 98.4609 l
562.613 109.426 l
562.613 91.1523 l
f*
562.613 91.1523 m
537.031 98.4609 l
562.613 109.426 l
562.613 91.1523 l
S
562.613 325.055 m
591.852 314.094 l
573.578 336.02 l
566.27 325.055 l
f*
562.613 325.055 m
591.852 314.094 l
573.578 336.02 l
566.27 325.055 l
S
683.223 1198.54 m
657.637 1205.85 l
683.223 1216.82 l
683.223 1198.54 l
f*
683.223 1198.54 m
657.637 1205.85 l
683.223 1216.82 l
683.223 1198.54 l
S
91.1523 1213.16 m
102.117 1242.4 l
105.77 1205.85 l
91.1523 1209.5 l
f*
91.1523 1213.16 m
102.117 1242.4 l
105.77 1205.85 l
91.1523 1209.5 l
S
683.223 854.996 m
624.746 738.043 624.746 1088.9 683.223 971.945 c
S
672.258 854.996 m
683.223 884.234 l
686.875 847.684 l
672.258 851.34 l
f*
672.258 854.996 m
683.223 884.234 l
686.875 847.684 l
672.258 851.34 l
S
/DeviceGray {} cs
[0] sc
Q
Q
showpage
%%PageTrailer
pdfEndPage
%%Trailer
end
%%DocumentSuppliedResources:
%%EOF
