%!PS-Adobe-3.0 EPSF-3.0
%%Title: esquemabloqueshardware.eps
%%Creator: XCircuit v3.7 rev40
%%CreationDate: Fri Apr 19 15:33:57 2013
%%Pages: 1
%%BoundingBox: 68 68 484 376
%%DocumentNeededResources: font Helvetica 
%%EndComments
%%BeginProlog
%
%  PostScript prolog for output from xcircuit
%  Version: 3.7
%
%  Electrical circuit (and otherwise general) drawing program
%
%  Written by Tim Edwards 8/5/93--11/1/10  (tim.edwards@multigig.com)
%  The Johns Hopkins University (1993-2004)
%  MultiGiG, Inc. (2004-present)
%
%%BeginResource: procset XCIRCproc 3.7 2
%
% supporting definitions --- these are the primary xcircuit types.

/XCIRCsave save def
/topmat matrix currentmatrix def

/fontslant { /slant exch def [1 0 slant 1 0 0] 
    exch findfont exch makefont dup length dict /ndict exch def
    { 1 index /FID ne { ndict 3 1 roll put } { pop pop } ifelse } forall
    ndict definefont pop} def
/ul { dup type /stringtype eq showflag 1 eq and { gsave 
   currentpoint topmat setmatrix 0 0 moveto 2 index stringwidth pop (_)
   false charpath flattenpath pathbbox grestore exch pop 1 index
   sub setlinewidth exch pop currentpoint 3 -1 roll add moveto 0
   rlineto stroke moveto } if } def
/ol { dup type /stringtype eq showflag 1 eq and { gsave gsave
   currentpoint topmat setmatrix 2 index stringwidth pop 3 index
   true charpath flattenpath pathbbox grestore exch pop
   exch pop topmat setmatrix (_) true charpath pathbbox grestore
   exch pop 1 index sub setlinewidth exch pop currentpoint
   exch 4 1 roll exch sub add moveto pop 0 rlineto stroke
   moveto } if } def
/stW { gsave currentpoint newpath moveto true charpath flattenpath
	pathbbox pop exch pop sub grestore } def
/Ts {mark Tabs aload pop counttomark 1 add array astore /Tabs exch def Tabs
	0 currentpoint pop put} def
/Tbn {mark Tabs aload pop counttomark dup 2 add 1 roll cleartomark 1 sub} def
/Tb { 0 1 Tbn {Tabs exch get dup currentpoint pop lt
	{currentpoint exch pop moveto exit} {pop} ifelse } for } def
/Tf { Tbn -1 0 {Tabs exch get dup currentpoint pop gt
	{currentpoint exch pop moveto exit} {pop} ifelse } for } def
/qS { (aa) stW (a a) stW sub 4 div 0 Kn } def
/hS { qS qS } def
/pspc 0 def
/cf0 { scalefont setfont } bind def
/Kn { dup kY add /kY exch def rmoveto } bind def
/ss { /fscale fscale 0.67 mul def currentfont 0.67 cf0 0 fscale0 fscale mul
	0.33 mul neg Kn} def
/Ss { /fscale fscale 0.67 mul def currentfont 0.67 cf0 0 fscale0 fscale mul
	0.67 mul Kn } def
/ns { 0 kY neg Kn /kY 0 def /fscale 1.0 def xfont0 1.0 cf0 } def
/CR { ns 0 /Bline Bline fscale0 neg add def Bline moveto } def
/cf { dup type /realtype ne {1.0} if exch findfont exch kY 0 eq
	{ 40 mul dup /fscale0 exch def cf0 /xfont0 currentfont def}
	{fscale0 mul fscale mul cf0} ifelse } def
/ctmk { counttomark dup 2 add -1 roll pop } bind def
/label { gsave translate 0 0 moveto dup scale neg /rotval exch def
	/just exch def just 384 and 0 gt {/mshow {pop} def} {/mshow {show}
	def} ifelse just 16 and 0 gt {gsave rotval rotate 0 1 dtransform
	gsave pagemat setmatrix idtransform exch grestore 1 0 dtransform
	gsave pagemat setmatrix idtransform exch grestore dup abs 1e-9 lt
	{pop mul 0 gt} {3 1 roll pop pop 0 lt} ifelse grestore {-1 /rotval
	rotval neg def /just just dup 3 and 1 ne {3 xor} if def} {1} ifelse
	exch -1e-9 lt {-1 /rotval rotval neg def /just just dup 12 and
	4 ne {12 xor} if def} {1} ifelse scale } if /showflag 0 def
	/fspc pspc def /Bline 0 def /Tabs 0 array def /fscale 1.0 def
	/kY 0 def gsave dup 1 add copy 0 exch 1 0 dtransform exch atan rotate
	{exch dup type /stringtype eq {true charpath flattenpath} {dup type
	/arraytype eq {exec} {12 string cvs true charpath flattenpath} ifelse}
	ifelse} repeat pop pathbbox grestore 3 -1 roll pop 3 1 roll just
	1 and 0 gt {just 2 and 0 gt {exch pop neg fspc sub} {exch sub 0.5
	mul neg} ifelse} {pop neg fspc add} ifelse exch Bline exch just 4
	and 0 gt {just 8 and 0 gt {exch pop neg fspc sub} {add 0.5 mul neg}
	ifelse} {pop neg fspc add} ifelse rotval rotate Kn currentpoint
	translate /showflag 1 def /Bline 0 def /Tabs 0 array def /fscale
	1.0 def /kY 0 def {dup type /stringtype eq {mshow} {dup type
	/arraytype eq {exec} {12 string cvs mshow} ifelse} ifelse} repeat
	grestore endclip} def
/pinlabel { 4 index 32 and 0 ne hlevel 0 eq or { /pspc 10 def label
	/pspc 0 def } { pop pop pop pop pop {pop} repeat } ifelse } def
/pinglobal { pinlabel } def
/infolabel { pinlabel } def
/graphic { gsave 4 index cvx exec /DataSource get resetfile translate 0 0
	moveto neg rotate dup scale cvx exec image grestore endclip} def

/scb { setrgbcolor } bind def  /sce { defColor aload pop scb } bind def
/cRedef {/defColor currentcolor 3 array astore def} def
/begingate {dup type /dicttype ne {1 dict} if begin	% default params
	dup type /dicttype ne {1 dict} if begin		% instanced params
	/hlevel hlevel 1 add def /defColor currentcolor sce 3 array astore
	def gsave sce translate 0 0 moveto neg rotate dup type /nametype
	eq not { dup abs currentlinewidth exch div setlinewidth } { pop }
	ifelse dup abs scale clipped 1 and 1 eq {/clipped clipped 1 add def}
	if} bind def
/endgate { /hlevel hlevel 1 sub def grestore defColor aload pop cRedef
	scb end end endclip} bind def

/hlevel 0 def
/endclip {clipped 1 and 1 eq {grestore /clipped clipped 1 sub def} if} def
/tmpa [1 0 0 1 0 0] def
/gar {8 8 true tmpa {<c0 c0 00 00 0c 0c 00 00>} imagemask} bind
{8 8 true tmpa {<30 70 60 02 03 07 06 20>} imagemask} bind
{8 8 true tmpa {<0c 1e 1e 0c c0 e1 e1 c0>} imagemask} bind
{8 8 true tmpa {<0f 0f 0f 0f f0 f0 f0 f0>} imagemask} bind
{8 8 true tmpa {<3f f3 e1 e1 f3 3f 1e 1e>} imagemask} bind
{8 8 true tmpa {<df cf 8f 9f fd fc f8 f9>} imagemask} bind
{8 8 true tmpa {<ff 3f 3f ff ff f3 f3 ff>} imagemask} bind 7 array astore def
/ppaint { gsave clip tmpa dup setmatrix pathbbox neg exch neg 4 2 roll
  neg 4 -1 roll 2 copy gt {exch} if 8 div ceiling 8 mul 4 2 roll neg 2 copy
  gt {exch} if 8 div ceiling 8 mul 3 -1 roll -8 5 -1 roll
  { 3 index exch 5 exch put dup -8 3 index { 3 index
  exch 4 exch put 3 index exec } for } for pop pop pop pop grestore } bind def
/setstyles {
  currentlinewidth mul setlinewidth /style exch def style 2048 and 0 gt
  clipped 1 and 0 eq and {clip newpath /clipped clipped 1 add def} {
  style 1 and 0 gt not {closepath} if
  style 1024 and 0 gt {2 setlinecap} if
  style 2 and 0 gt {currentlinewidth 4 mul dup 2 array astore 0 setdash} if
  style 4 and 0 gt {0.5 currentlinewidth 4 mul 2 array astore 0 setdash} if
  gsave style 16 and 0 gt { style 224 and -5 bitshift style 256 and 0 gt {
  7 exch sub 8 div dup 1 exch sub currentrgbcolor 3 array astore
  {3 copy mul add 4 1 roll pop} forall pop pop setrgbcolor eofill}
  {dup 7 lt {gar exch get ppaint} {pop eofill} ifelse} ifelse}
  {style 256 and 0 gt {1 setgray eofill} if} ifelse grestore style 8 and 0 gt 
  style 512 eq or {newpath} {stroke} ifelse grestore endclip} ifelse} def     

/addtoy {exch dup dup 2 mul 3 add 1 roll -1 1 { 4 1 roll dup 4 1 roll add
	4 -1 roll 2 mul 1 add index 2 mul 2 add 2 roll} for pop} def
/addtoy1 {1 exch addtoy pop} def
/addtoy3 {3 exch addtoy pop} def
/addtoy4 {4 exch addtoy pop} def
/addtox {exch dup dup 2 mul 3 add 1 roll -1 1 { 4 1 roll dup 4 1 roll 3 -1 roll
	add exch 4 -1 roll 2 mul 1 add index 2 mul 2 add 2 roll} for pop} def
/addtox1 {1 exch addtox pop} def
/addtox3 {3 exch addtox pop} def
/addtox4 {4 exch addtox pop} def
/polygon { gsave /num exch def moveto num 1 sub {lineto} repeat setstyles } def
/xcarc   { gsave newpath arc setstyles } def
/elb { matrix currentmatrix 7 -1 roll 7 -1 roll translate 5 1 roll 4 -1 roll
	3 index div 1 scale } def
/ele { 0 4 1 roll 0 4 1 roll } bind def
/ellipse { gsave elb newpath ele arc setmatrix setstyles } def
/pellip  { elb ele arc setmatrix } def
/nellip  { elb ele arcn setmatrix } def
/spline  { gsave moveto curveto setstyles } def
/polyc   { {lineto} repeat } bind def
/beginpath { gsave moveto } bind def
/endpath { setstyles } bind def
/bop	 { 1 setlinecap 0 setlinejoin 6 setmiterlimit 0 0 0 scb cRedef
	/clipped 0 def} def
/psinsertion {/PSobj save def /showpage {} def /setpagedevice {pop} def bop
	rotate translate dup scale} def
/end_insert {PSobj restore} def
/setpagemat {/pagemat matrix currentmatrix def} def
/inchscale  {setpagemat 0.375 mul dup scale} def
/cmscale    {setpagemat 0.35433071 mul dup scale} def

%%EndResource
%%EndProlog

% XCircuit output starts here.

%%BeginSetup


%%EndSetup

%%Page: esquemabloqueshardware 1
%%PageOrientation: Portrait
/pgsave save def bop
1.0000 inchscale
2.6000 setlinewidth 832 624 translate

0 1.000 -192 224 -192 96 0 96 0 224 4 polygon
0 1.000 96 288 96 224 256 224 256 288 4 polygon
0 1.000 288 272 288 240 416 240 416 272 4 polygon
0 1.000 288 320 288 288 416 288 416 320 4 polygon
0 1.000 288 224 288 192 416 192 416 224 4 polygon
0 1.000 -192 0 -192 -64 0 -64 0 0 4 polygon
1 1.000 -96 96 -96 0 2 polygon
(Adaptador) {/Helvetica cf} 2 144 0 0.500 -128 -26 label
(Controlador) {/Helvetica cf} 2 144 0 0.500 -131 173 label
(maestro) {/Helvetica cf} 2 144 0 0.500 -116 144 label
1 1.000 256 256 272 256 272 304 288 304 4 polygon
1 1.000 272 256 288 256 2 polygon
1 1.000 272 256 272 208 288 208 3 polygon
0 1.000 -608 272 -608 240 -480 240 -480 272 4 polygon
0 1.000 -608 320 -608 288 -480 288 -480 320 4 polygon
0 1.000 -608 224 -608 192 -480 192 -480 224 4 polygon
(Servo Motor) {/Helvetica cf} 2 144 0 0.500 -590 298 label
1 1.000 -480 304 -464 304 -464 208 -480 208 4 polygon
1 1.000 -480 256 -448 256 2 polygon
0 1.000 -448 288 -448 224 -288 224 -288 288 4 polygon
(Power System) {/Helvetica cf} 2 144 0 0.500 -144 -384 label
0 1.000 -192 288 -192 352 0 352 0 288 4 polygon
1 1.000 -96 288 -96 224 2 polygon
1 1.000 -96 -64 -96 -240 2 polygon
1 1.000 -112 -128 -80 -112 2 polygon
(Controlador) {/Helvetica cf} 2 144 0 0.500 -405 264 label
(Controlador) {/Helvetica cf} 2 144 0 0.500 139 264 label
(distribuido) {/Helvetica cf} 2 144 0 0.500 -397 240 label
(distribuido) {/Helvetica cf} 2 144 0 0.500 147 240 label
(Servo Motor) {/Helvetica cf} 2 144 0 0.500 314 202 label
(Servo Motor) {/Helvetica cf} 2 144 0 0.500 314 250 label
(Servo Motor) {/Helvetica cf} 2 144 0 0.500 314 298 label
3 1.000 -128 -64 -128 -256 2 polygon
3 1.000 -128 96 -128 0 2 polygon
(Se\\~nal) {/Helvetica cf} 2 144 0 0.300 -171 62 label
(de) {/Helvetica cf} 2 144 0 0.300 -167 50 label
(sincronismo) {/Helvetica cf} 2 144 0 0.300 -180 38 label
(de niveles) {/Helvetica cf} 2 144 0 0.500 -128 -48 label
(Bus de) {/Helvetica cf} 2 144 0 0.300 -64 -112 label
(comunicacion) {/Helvetica cf} 2 144 0 0.300 -80 -128 label
1 1.000 -138 50 -119 61 2 polygon
(Comunicacion) {/Helvetica cf} 2 144 0 0.500 -142 329 label
(inalambrica) {/Helvetica cf} 2 144 0 0.500 -130 305 label
3 1.000 -128 -256 48 -256 48 240 96 240 4 polygon
1 1.000 32 256 32 272 96 272 3 polygon
0 1.700 64 352 64 160 448 160 448 352 4 polygon
0 1.700 -640 352 -640 160 -256 160 -256 352 4 polygon
1 1.000 -288 272 -224 272 -224 -240 32 -240 32 256 5 polygon
3 1.000 -288 240 -240 240 -240 -256 -128 -256 4 polygon
0 1.000 96 64 96 0 256 0 256 64 4 polygon
0 1.000 288 48 288 16 416 16 416 48 4 polygon
0 1.000 288 96 288 64 416 64 416 96 4 polygon
0 1.000 288 0 288 -32 416 -32 416 0 4 polygon
1 1.000 256 32 272 32 272 80 288 80 4 polygon
1 1.000 272 32 288 32 2 polygon
1 1.000 272 32 272 -16 288 -16 3 polygon
(Controlador) {/Helvetica cf} 2 144 0 0.500 139 40 label
(distribuido) {/Helvetica cf} 2 144 0 0.500 147 16 label
(Servo Motor) {/Helvetica cf} 2 144 0 0.500 314 -22 label
(Servo Motor) {/Helvetica cf} 2 144 0 0.500 314 26 label
(Servo Motor) {/Helvetica cf} 2 144 0 0.500 314 74 label
0 1.700 64 128 64 -64 448 -64 448 128 4 polygon
0 1.000 96 -160 96 -224 256 -224 256 -160 4 polygon
0 1.000 288 -176 288 -208 416 -208 416 -176 4 polygon
0 1.000 288 -128 288 -160 416 -160 416 -128 4 polygon
0 1.000 288 -224 288 -256 416 -256 416 -224 4 polygon
1 1.000 256 -192 272 -192 272 -144 288 -144 4 polygon
1 1.000 272 -192 288 -192 2 polygon
1 1.000 272 -192 272 -240 288 -240 3 polygon
(Controlador) {/Helvetica cf} 2 144 0 0.500 139 -184 label
(distribuido) {/Helvetica cf} 2 144 0 0.500 147 -208 label
(Servo Motor) {/Helvetica cf} 2 144 0 0.500 314 -246 label
(Servo Motor) {/Helvetica cf} 2 144 0 0.500 314 -198 label
(Servo Motor) {/Helvetica cf} 2 144 0 0.500 314 -150 label
0 1.700 64 -96 64 -288 448 -288 448 -96 4 polygon
0 1.000 -608 48 -608 16 -480 16 -480 48 4 polygon
0 1.000 -608 96 -608 64 -480 64 -480 96 4 polygon
0 1.000 -608 0 -608 -32 -480 -32 -480 0 4 polygon
1 1.000 -480 80 -464 80 -464 -16 -480 -16 4 polygon
1 1.000 -480 32 -448 32 2 polygon
0 1.000 -448 64 -448 0 -288 0 -288 64 4 polygon
(Controlador) {/Helvetica cf} 2 144 0 0.500 -405 40 label
(distribuido) {/Helvetica cf} 2 144 0 0.500 -397 16 label
0 1.700 -640 128 -640 -64 -256 -64 -256 128 4 polygon
0 1.000 -608 -176 -608 -208 -480 -208 -480 -176 4 polygon
0 1.000 -608 -128 -608 -160 -480 -160 -480 -128 4 polygon
0 1.000 -608 -224 -608 -256 -480 -256 -480 -224 4 polygon
(Servo Motor) {/Helvetica cf} 2 144 0 0.500 -590 -150 label
1 1.000 -480 -144 -464 -144 -464 -240 -480 -240 4 polygon
1 1.000 -480 -192 -448 -192 2 polygon
0 1.000 -448 -160 -448 -224 -288 -224 -288 -160 4 polygon
(Controlador) {/Helvetica cf} 2 144 0 0.500 -405 -184 label
(distribuido) {/Helvetica cf} 2 144 0 0.500 -397 -208 label
0 1.700 -640 -96 -640 -288 -256 -288 -256 -96 4 polygon
3 1.000 48 -208 96 -208 2 polygon
3 1.000 -240 -208 -288 -208 2 polygon
3 1.000 48 16 96 16 2 polygon
3 1.000 -288 16 -240 16 2 polygon
1 1.000 -288 48 -224 48 2 polygon
1 1.000 -288 -176 -224 -176 2 polygon
1 1.000 96 -176 32 -176 2 polygon
1 1.000 96 48 32 48 2 polygon
0 1.700 -640 -320 -640 -432 448 -432 448 -320 4 polygon
0 1.700 -208 368 -208 -192 16 -192 16 368 4 polygon
(Servo Motor) {/Helvetica cf} 2 144 0 0.500 -590 250 label
(Servo Motor) {/Helvetica cf} 2 144 0 0.500 -590 202 label
(Servo Motor) {/Helvetica cf} 2 144 0 0.500 -590 74 label
(Servo Motor) {/Helvetica cf} 2 144 0 0.500 -590 26 label
(Servo Motor) {/Helvetica cf} 2 144 0 0.500 -590 -22 label
(Servo Motor) {/Helvetica cf} 2 144 0 0.500 -590 -198 label
(Servo Motor) {/Helvetica cf} 2 144 0 0.500 -590 -246 label
pgsave restore showpage

%%Trailer
XCIRCsave restore
%%EOF
