%!PS-Adobe-3.0 EPSF-3.0
%%Title: articulacionesparmenor
%%Creator: XCircuit v3.6 rev135
%%CreationDate: Sun Apr  1 15:13:54 2012
%%Pages: 1
%%BoundingBox: 68 68 576 686
%%DocumentNeededResources: font Helvetica HelveticaISO 
%%EndComments
%%BeginProlog
%
%  PostScript prolog for output from xcircuit
%  Version: 3.3
%
%  Electrical circuit (and otherwise general) drawing program
%
%  Written by Tim Edwards 8/5/93--7/13/05  (tim.edwards@multigig.com)
%  The Johns Hopkins University (1993-2004)
%  MultiGiG, Inc. (2004-present)
%
%%BeginResource: procset XCIRCproc 3.3 0
%
% supporting definitions --- these are the primary xcircuit types.

/XCIRCsave save def
/topmat matrix currentmatrix def

/fontslant { /slant exch def [1 0 slant 1 0 0] 
    exch findfont exch makefont dup length dict /ndict exch def
    { 1 index /FID ne { ndict 3 1 roll put } { pop pop } ifelse } forall
    ndict definefont pop} def
/ul { dup type /stringtype eq showflag 1 eq and { gsave 
   currentpoint topmat setmatrix 0 0 moveto 2 index stringwidth pop (_)
   false charpath flattenpath pathbbox grestore exch pop 1 index
   sub setlinewidth exch pop currentpoint 3 -1 roll add moveto 0
   rlineto stroke moveto } if } def
/ol { dup type /stringtype eq showflag 1 eq and { gsave gsave
   currentpoint topmat setmatrix 2 index stringwidth pop 3 index
   true charpath flattenpath pathbbox grestore exch pop
   exch pop topmat setmatrix (_) true charpath pathbbox grestore
   exch pop 1 index sub setlinewidth exch pop currentpoint
   exch 4 1 roll exch sub add moveto pop 0 rlineto stroke
   moveto } if } def
/stW { gsave currentpoint newpath moveto true charpath flattenpath
	pathbbox pop exch pop sub grestore } def
/Ts {mark Tabs aload pop counttomark 1 add array astore /Tabs exch def Tabs
	0 currentpoint pop put} def
/Tbn {mark Tabs aload pop counttomark dup 2 add 1 roll cleartomark 1 sub} def
/Tb { 0 1 Tbn {Tabs exch get dup currentpoint pop lt
	{currentpoint exch pop moveto exit} {pop} ifelse } for } def
/Tf { Tbn -1 0 {Tabs exch get dup currentpoint pop gt
	{currentpoint exch pop moveto exit} {pop} ifelse } for } def
/qS { (aa) stW (a a) stW sub 4 div 0 Kn } def
/hS { qS qS } def
/pspc 0 def
/cf0 { scalefont setfont } bind def
/Kn { dup kY add /kY exch def rmoveto } bind def
/ss { /fscale fscale 0.67 mul def currentfont 0.67 cf0 0 fscale0 fscale mul
	0.33 mul neg Kn} def
/Ss { /fscale fscale 0.67 mul def currentfont 0.67 cf0 0 fscale0 fscale mul
	0.67 mul Kn } def
/ns { 0 kY neg Kn /kY 0 def /fscale 1.0 def xfont0 1.0 cf0 } def
/CR { ns 0 /Bline Bline fscale0 neg add def Bline moveto } def
/cf { dup type /realtype ne {1.0} if exch findfont exch kY 0 eq
	{ 40 mul dup /fscale0 exch def cf0 /xfont0 currentfont def}
	{fscale0 mul fscale mul cf0} ifelse } def
/ctmk { counttomark dup 2 add -1 roll pop } bind def
/label { gsave translate 0 0 moveto dup scale neg /rotval exch def
	/just exch def just 384 and 0 gt {/mshow {pop} def} {/mshow {show}
	def} ifelse just 16 and 0 gt {gsave rotval rotate 0 1 dtransform
	gsave pagemat setmatrix idtransform exch grestore 1 0 dtransform
	gsave pagemat setmatrix idtransform exch grestore dup abs 1e-9 lt
	{pop mul 0 gt} {3 1 roll pop pop 0 lt} ifelse grestore {-1 /rotval
	rotval neg def /just just dup 3 and 1 ne {3 xor} if def} {1} ifelse
	exch -1e-9 lt {-1 /rotval rotval neg def /just just dup 12 and
	4 ne {12 xor} if def} {1} ifelse scale } if /showflag 0 def
	/fspc pspc def /Bline 0 def /Tabs 0 array def /fscale 1.0 def
	/kY 0 def gsave dup 1 add copy 0 exch 1 0 dtransform exch atan rotate
	{exch dup type /stringtype eq {true charpath flattenpath} {dup type
	/arraytype eq {exec} {12 string cvs true charpath flattenpath} ifelse}
	ifelse} repeat pop pathbbox grestore 3 -1 roll pop 3 1 roll just
	1 and 0 gt {just 2 and 0 gt {exch pop neg fspc sub} {exch sub 0.5
	mul neg} ifelse} {pop neg fspc add} ifelse exch Bline exch just 4
	and 0 gt {just 8 and 0 gt {exch pop neg fspc sub} {add 0.5 mul neg}
	ifelse} {pop neg fspc add} ifelse rotval rotate Kn currentpoint
	translate /showflag 1 def /Bline 0 def /Tabs 0 array def /fscale
	1.0 def /kY 0 def {dup type /stringtype eq {mshow} {dup type
	/arraytype eq {exec} {12 string cvs mshow} ifelse} ifelse} repeat
	grestore } def
/pinlabel { 4 index 32 and 0 ne hlevel 0 eq or { /pspc 10 def label
	/pspc 0 def } { pop pop pop pop pop {pop} repeat } ifelse } def
/pinglobal { pinlabel } def
/infolabel { pinlabel } def
/graphic { gsave 4 index cvx exec /DataSource get resetfile translate
	0 0 moveto neg rotate dup scale cvx exec image grestore } def

/scb { setrgbcolor } bind def  /sce { defColor aload pop scb } bind def
/cRedef {/defColor currentcolor 3 array astore def} def
/begingate {dup type /dicttype ne {1 dict} if begin	% default params
	dup type /dicttype ne {1 dict} if begin		% instanced params
	/hlevel hlevel 1 add def /defColor currentcolor sce 3 array
	astore def gsave sce translate 0 0 moveto neg rotate dup abs scale
	} bind def
/endgate { /hlevel hlevel 1 sub def grestore defColor aload pop cRedef
	scb end end} bind def

/hlevel 0 def
/tmpa [1 0 0 1 0 0] def
/gar {8 8 true tmpa {<c0 c0 00 00 0c 0c 00 00>} imagemask} bind
{8 8 true tmpa {<30 70 60 02 03 07 06 20>} imagemask} bind
{8 8 true tmpa {<0c 1e 1e 0c c0 e1 e1 c0>} imagemask} bind
{8 8 true tmpa {<0f 0f 0f 0f f0 f0 f0 f0>} imagemask} bind
{8 8 true tmpa {<3f f3 e1 e1 f3 3f 1e 1e>} imagemask} bind
{8 8 true tmpa {<df cf 8f 9f fd fc f8 f9>} imagemask} bind
{8 8 true tmpa {<ff 3f 3f ff ff f3 f3 ff>} imagemask} bind 7 array astore def
/ppaint { gsave clip tmpa dup setmatrix pathbbox neg exch neg 4 2 roll
  neg 4 -1 roll 2 copy gt {exch} if 8 div ceiling 8 mul 4 2 roll neg 2 copy
  gt {exch} if 8 div ceiling 8 mul 3 -1 roll -8 5 -1 roll
  { 3 index exch 5 exch put dup -8 3 index { 3 index
  exch 4 exch put 3 index exec } for } for pop pop pop pop grestore } bind def
/setstyles {
  currentlinewidth mul setlinewidth /style exch def
  style 1 and 0 gt not {closepath} if
  style 1024 and 0 gt {2 setlinecap} if
  style 2 and 0 gt {currentlinewidth 4 mul dup 2 array astore 0 setdash} if
  style 4 and 0 gt {0.5 currentlinewidth 4 mul 2 array astore 0 setdash} if
  gsave style 16 and 0 gt { style 224 and -5 bitshift style 256 and 0 gt {
  7 exch sub 8 div dup 1 exch sub currentrgbcolor 3 array astore
  {3 copy mul add 4 1 roll pop} forall pop pop setrgbcolor eofill}
  {dup 7 lt {gar exch get ppaint} {pop eofill} ifelse} ifelse}
  {style 256 and 0 gt {1 setgray eofill} if} ifelse grestore style 8 and 0 gt 
  style 512 eq or {newpath} {stroke} ifelse grestore} def     

/polygon { gsave /num exch def moveto num 1 sub {lineto} repeat setstyles } def
/xcarc   { gsave newpath arc setstyles } def
/elb { matrix currentmatrix 7 -1 roll 7 -1 roll translate 5 1 roll 4 -1 roll
	3 index div 1 scale } def
/ele { 0 4 1 roll 0 4 1 roll } bind def
/ellipse { gsave elb newpath ele arc setmatrix setstyles } def
/pellip  { elb ele arc setmatrix } def
/nellip  { elb ele arcn setmatrix } def
/spline  { gsave moveto curveto setstyles } def
/polyc   { {lineto} repeat } bind def
/beginpath { gsave moveto } bind def
/endpath { setstyles } bind def
/bop	 { 1 setlinecap 0 setlinejoin 6 setmiterlimit 0 0 0 scb cRedef } def
/psinsertion {/PSobj save def /showpage {} def /setpagedevice {pop} def bop
	rotate translate dup scale} def
/end_insert {PSobj restore} def
/setpagemat {/pagemat matrix currentmatrix def} def
/inchscale  {setpagemat 0.375 mul dup scale} def
/cmscale    {setpagemat 0.35433071 mul dup scale} def

%%EndResource
%%EndProlog

/Helvetica findfont dup length dict begin
{1 index /FID ne {def} {pop pop} ifelse} forall
/Encoding ISOLatin1Encoding def currentdict end
/HelveticaISO exch definefont pop

% XCircuit output starts here.

%%BeginSetup


%%EndSetup

%%Page: 1 1
%%PageOrientation: Portrait
/pgsave save def bop
1.0000 inchscale
2.6000 setlinewidth 408 340 translate

1 1.000 -2 538 144 31 0.000 360.000 ellipse
1 1.000 -2 506 143 30 149.831 390.317 ellipse
1 1.000 -2 474 145 31 148.887 391.387 ellipse
1 1.000 -2 442 203 42 135.627 404.775 ellipse
1 1.000 -2 410 203 41 185.413 357.486 ellipse
1 1.000 201 442 201 408 2 polygon
1 1.000 -205 441 -205 407 2 polygon
1 1.000 -2 373 145 31 166.511 371.681 ellipse
1 1.000 -3 345 145 31 152.098 386.655 ellipse
(de Tornillo) {/Helvetica cf} 2 16 0 1.000 -80 244 label
1 1.000 2 1120 144 31 0.000 360.000 ellipse
1 1.000 2 796 145 31 174.515 366.289 ellipse
1 1.000 2 958 203 42 135.627 404.775 ellipse
1 1.000 2 926 203 41 185.413 357.486 ellipse
1 1.000 205 958 205 924 2 polygon
1 1.000 -201 957 -201 923 2 polygon
1 1.000 146 798 146 894 2 polygon
1 1.000 -142 798 -142 894 2 polygon
1 1.000 -142 958 -142 1118 2 polygon
1 1.000 146 958 146 1118 2 polygon
1 1.000 2 964 147 31 190.900 349.096 ellipse
(Cilindrica) {/Helvetica cf} 2 16 0 1.000 -46 706 label
1 1.000 1 1434 11 6 0.000 354.806 ellipse
1 1.000 1 1420 11 5 198.699 343.301 ellipse
1 1.000 12 1419 12 1434 2 polygon
1 1.000 -10 1419 -10 1434 2 polygon
1 1.000 72 1384 72 1384 -120 1336 -216 1384 -88 1416 5 polygon
1 1.000 -216 1384 -216 1368 -120 1320 72 1368 72 1384 5 polygon
1 1.000 8 1368 -88 1416 2 polygon
1 1.000 -88 1416 -88 1432 8 1384 8 1368 4 polygon
1 1.000 -88 1432 104 1480 200 1432 8 1384 4 polygon
1 1.000 72 1384 200 1416 200 1432 3 polygon
(Angular) {/Helvetica cf} 2 16 0 1.000 -64 1264 label
1 1.000 430 880 702 1072 2 polygon
1 1.000 702 1072 1118 1072 2 polygon
1 1.000 430 880 846 880 2 polygon
1 1.000 846 880 1118 1072 2 polygon
1 1.000 430 864 846 864 2 polygon
1 1.000 846 864 1118 1056 2 polygon
1 1.000 430 880 430 864 2 polygon
1 1.000 1118 1056 1118 1072 2 polygon
1 1.000 846 880 846 864 2 polygon
1 1.000 702 992 702 976 2 polygon
1 1.000 750 976 750 960 2 polygon
1 1.000 750 976 846 1008 846 992 3 polygon
1 1.000 750 960 846 992 2 polygon
1 1.000 750 960 702 976 2 polygon
1 1.000 702 992 750 976 2 polygon
1 1.000 702 992 798 1024 846 1008 3 polygon
(Planar) {/Helvetica cf} 2 16 0 1.000 720 777 label
1 1.000 494 398 862 398 2 polygon
1 1.000 622 574 494 398 2 polygon
1 1.000 862 398 974 574 2 polygon
1 1.000 494 398 494 318 862 318 862 398 4 polygon
1 1.000 862 318 974 494 2 polygon
1 1.000 974 574 974 494 2 polygon
1 1.000 734 478 80 104.036 180.000 xcarc
1 1.000 734 478 80 0.000 74.055 xcarc
1 1.000 715 556 715 702 2 polygon
1 1.000 756 555 756 702 2 polygon
1 1.000 734 478 80 35 180.000 360.000 ellipse
1 1.000 622 574 715 574 2 polygon
1 1.000 974 574 757 574 2 polygon
1 1.000 735 704 21 4 14.708 332.560 ellipse
( ) {/HelveticaISO cf} 2 16 0 1.000 748 -148 label
(Esferica) {/HelveticaISO cf} 2 16 0 1.000 639 229 label
1 1.000 800 1456 64 15 -90.000 241.327 ellipse
1 1.000 800 1408 64 15 270.000 360.000 ellipse
1 1.000 864 1456 864 1408 2 polygon
1 1.000 736 1408 736 1456 2 polygon
1 1.000 800 1408 64 15 180.000 234.203 ellipse
1 1.000 793 1400 128 35 117.493 416.389 ellipse
1 1.000 793 1368 128 35 181.637 356.003 ellipse
1 1.000 800 1296 64 15 270.000 360.000 ellipse
1 1.000 800 1294 64 15 180.000 232.001 ellipse
1 1.000 864 1296 864 1339 2 polygon
1 1.000 921 1365 921 1400 2 polygon
1 1.000 665 1369 665 1400 2 polygon
1 1.000 736 1293 736 1336 2 polygon
1 1.000 800 1393 800 1441 2 polygon
1 1.000 800 1441 792 1425 762 1425 770 1442 4 polygon
1 1.000 763 1425 763 1380 792 1380 792 1425 4 polygon
1 1.000 792 1380 800 1393 2 polygon
1 1.000 792 1268 799 1281 2 polygon
1 1.000 761 1334 761 1268 792 1268 792 1333 4 polygon
(Prismatica) {/HelveticaISO cf} 2 16 0 1.000 711 1219 label
pgsave restore showpage

%%Trailer
XCIRCsave restore
%%EOF
