%!PS-Adobe-3.0 EPSF-3.0
%%Creator: cairo 1.12.2 (http://cairographics.org)
%%CreationDate: Wed Jan 15 11:00:01 2014
%%Pages: 1
%%DocumentData: Clean7Bit
%%LanguageLevel: 2
%%BoundingBox: 0 -1 148 296
%%EndComments
%%BeginProlog
save
50 dict begin
/q { gsave } bind def
/Q { grestore } bind def
/cm { 6 array astore concat } bind def
/w { setlinewidth } bind def
/J { setlinecap } bind def
/j { setlinejoin } bind def
/M { setmiterlimit } bind def
/d { setdash } bind def
/m { moveto } bind def
/l { lineto } bind def
/c { curveto } bind def
/h { closepath } bind def
/re { exch dup neg 3 1 roll 5 3 roll moveto 0 rlineto
      0 exch rlineto 0 rlineto closepath } bind def
/S { stroke } bind def
/f { fill } bind def
/f* { eofill } bind def
/n { newpath } bind def
/W { clip } bind def
/W* { eoclip } bind def
/BT { } bind def
/ET { } bind def
/pdfmark where { pop globaldict /?pdfmark /exec load put }
    { globaldict begin /?pdfmark /pop load def /pdfmark
    /cleartomark load def end } ifelse
/BDC { mark 3 1 roll /BDC pdfmark } bind def
/EMC { mark /EMC pdfmark } bind def
/cairo_store_point { /cairo_point_y exch def /cairo_point_x exch def } def
/Tj { show currentpoint cairo_store_point } bind def
/TJ {
  {
    dup
    type /stringtype eq
    { show } { -0.001 mul 0 cairo_font_matrix dtransform rmoveto } ifelse
  } forall
  currentpoint cairo_store_point
} bind def
/cairo_selectfont { cairo_font_matrix aload pop pop pop 0 0 6 array astore
    cairo_font exch selectfont cairo_point_x cairo_point_y moveto } bind def
/Tf { pop /cairo_font exch def /cairo_font_matrix where
      { pop cairo_selectfont } if } bind def
/Td { matrix translate cairo_font_matrix matrix concatmatrix dup
      /cairo_font_matrix exch def dup 4 get exch 5 get cairo_store_point
      /cairo_font where { pop cairo_selectfont } if } bind def
/Tm { 2 copy 8 2 roll 6 array astore /cairo_font_matrix exch def
      cairo_store_point /cairo_font where { pop cairo_selectfont } if } bind def
/g { setgray } bind def
/rg { setrgbcolor } bind def
/d1 { setcachedevice } bind def
%%EndProlog
%%Page: 1 1
%%BeginPageSetup
%%PageBoundingBox: 0 -1 148 296
%%EndPageSetup
q 0 -1 148 297 rectclip q
0 g
0.51 w
1 J
1 j
[ 43.2 3.6 3.6 3.6] 0 d
10 M 116.473 110.3 m 116.473 115.968 l S
[ 43.2 3.6 3.6 3.6] 0 d
109.387 103.214 m 103.719 103.214 l S
[ 43.2 3.6 3.6 3.6] 0 d
116.473 96.128 m 116.473 90.456 l S
[ 43.2 3.6 3.6 3.6] 0 d
123.559 103.214 m 129.227 103.214 l S
[ 43.2 3.6 3.6 3.6] 0 d
37.645 142.202 m 37.645 147.87 l S
[ 43.2 3.6 3.6 3.6] 0 d
30.559 135.116 m 24.887 135.116 l S
[ 43.2 3.6 3.6 3.6] 0 d
37.645 128.026 m 37.645 122.358 l S
[ 43.2 3.6 3.6 3.6] 0 d
44.73 135.116 m 50.398 135.116 l S
[ 43.2 3.6 3.6 3.6] 0 d
31.434 199.807 m 31.434 205.475 l S
[ 43.2 3.6 3.6 3.6] 0 d
24.348 192.721 m 18.676 192.721 l S
[ 43.2 3.6 3.6 3.6] 0 d
31.434 185.632 m 31.434 179.964 l S
[ 43.2 3.6 3.6 3.6] 0 d
38.52 192.721 m 44.188 192.721 l S
[ 43.2 3.6 3.6 3.6] 0 d
116.473 199.807 m 116.473 205.475 l S
[ 43.2 3.6 3.6 3.6] 0 d
109.387 192.721 m 103.719 192.721 l S
[ 43.2 3.6 3.6 3.6] 0 d
116.473 185.632 m 116.473 179.964 l S
[ 43.2 3.6 3.6 3.6] 0 d
123.559 192.721 m 129.227 192.721 l S
[ 43.2 3.6 3.6 3.6] 0 d
73.953 74.866 m 73.953 81.272 l S
[ 43.2 3.6 3.6 3.6] 0 d
59.781 60.694 m 53.375 60.694 l S
[ 43.2 3.6 3.6 3.6] 0 d
73.953 46.518 m 73.953 40.112 l S
[ 43.2 3.6 3.6 3.6] 0 d
88.125 60.694 m 94.531 60.694 l S
[ 43.2 3.6 3.6 3.6] 0 d
73.953 249.413 m 73.953 255.819 l S
[ 43.2 3.6 3.6 3.6] 0 d
59.781 235.241 m 53.375 235.241 l S
[ 43.2 3.6 3.6 3.6] 0 d
73.953 221.065 m 73.953 214.659 l S
[ 43.2 3.6 3.6 3.6] 0 d
88.125 235.241 m 94.531 235.241 l S
[ 43.2 3.6 3.6 3.6] 0 d
39.34 272.862 m 39.34 277.112 l S
[ 43.2 3.6 3.6 3.6] 0 d
32.254 265.772 m 28.004 265.772 l S
[ 43.2 3.6 3.6 3.6] 0 d
39.34 258.686 m 39.34 254.436 l S
[ 43.2 3.6 3.6 3.6] 0 d
46.43 265.772 m 50.68 265.772 l S
[ 43.2 3.6 3.6 3.6] 0 d
14.613 151.401 m 14.613 155.651 l S
[ 43.2 3.6 3.6 3.6] 0 d
7.527 144.315 m 3.273 144.315 l S
[ 43.2 3.6 3.6 3.6] 0 d
14.613 137.229 m 14.613 132.975 l S
[ 43.2 3.6 3.6 3.6] 0 d
21.699 144.315 m 25.953 144.315 l S
[ 43.2 3.6 3.6 3.6] 0 d
75.059 21.639 m 75.059 25.889 l S
[ 43.2 3.6 3.6 3.6] 0 d
67.969 14.55 m 63.719 14.55 l S
[ 43.2 3.6 3.6 3.6] 0 d
75.059 7.464 m 75.059 3.214 l S
[ 43.2 3.6 3.6 3.6] 0 d
82.145 14.55 m 86.395 14.55 l S
[ 43.2 3.6 3.6 3.6] 0 d
108.562 37.245 m 108.562 41.499 l S
[ 43.2 3.6 3.6 3.6] 0 d
101.477 30.159 m 97.227 30.159 l S
[ 43.2 3.6 3.6 3.6] 0 d
108.562 23.073 m 108.562 18.819 l S
[ 43.2 3.6 3.6 3.6] 0 d
115.652 30.159 m 119.902 30.159 l S
[ 43.2 3.6 3.6 3.6] 0 d
133.293 158.706 m 133.293 162.956 l S
[ 43.2 3.6 3.6 3.6] 0 d
126.207 151.62 m 121.953 151.62 l S
[ 43.2 3.6 3.6 3.6] 0 d
133.293 144.53 m 133.293 140.28 l S
[ 43.2 3.6 3.6 3.6] 0 d
140.379 151.62 m 144.633 151.62 l S
[ 43.2 3.6 3.6 3.6] 0 d
72.848 288.468 m 72.848 292.721 l S
[ 43.2 3.6 3.6 3.6] 0 d
65.762 281.382 m 61.512 281.382 l S
[ 43.2 3.6 3.6 3.6] 0 d
72.848 274.296 m 72.848 270.042 l S
[ 43.2 3.6 3.6 3.6] 0 d
79.934 281.382 m 84.188 281.382 l S
[ 43.2 3.6 3.6 3.6] 0 d
48.121 167.007 m 48.121 171.261 l S
[ 43.2 3.6 3.6 3.6] 0 d
41.035 159.921 m 36.781 159.921 l S
[ 43.2 3.6 3.6 3.6] 0 d
48.121 152.835 m 48.121 148.585 l S
[ 43.2 3.6 3.6 3.6] 0 d
55.207 159.921 m 59.461 159.921 l S
[ 43.2 3.6 3.6 3.6] 0 d
99.785 143.096 m 99.785 147.35 l S
[ 43.2 3.6 3.6 3.6] 0 d
92.699 136.011 m 88.445 136.011 l S
[ 43.2 3.6 3.6 3.6] 0 d
99.785 128.925 m 99.785 124.671 l S
[ 43.2 3.6 3.6 3.6] 0 d
106.871 136.011 m 111.125 136.011 l S
[] 0.0 d
116.445 103.151 m 116.445 110.253 l 116.445 103.151 m 109.344 103.151 l
 116.445 103.151 m 116.445 96.05 l 116.445 103.151 m 123.543 103.151 l 37.543
 135.05 m 37.543 142.151 l 37.543 135.05 m 30.543 135.05 l 37.543 135.05
 m 37.543 127.952 l 37.543 135.05 m 44.645 135.05 l 31.344 192.651 m 31.344
 199.753 l 31.344 192.651 m 24.344 192.651 l 31.344 192.651 m 31.344 185.55
 l 31.344 192.651 m 38.445 192.651 l 116.445 192.651 m 116.445 199.753 l
 116.445 192.651 m 109.344 192.651 l 116.445 192.651 m 116.445 185.55 l 
116.445 192.651 m 123.543 192.651 l 73.945 60.651 m 73.945 67.753 l 73.945
 60.651 m 66.844 60.651 l 73.945 60.651 m 73.945 53.55 l 73.945 60.651 m
 80.945 60.651 l 73.945 235.151 m 73.945 242.253 l 73.945 235.151 m 66.844
 235.151 l 73.945 235.151 m 73.945 228.151 l 73.945 235.151 m 80.945 235.151
 l 39.242 265.753 m 39.242 272.85 l 39.242 265.753 m 32.242 265.753 l 39.242
 265.753 m 39.242 258.651 l 39.242 265.753 m 46.344 265.753 l 14.543 144.253
 m 14.543 151.35 l 14.543 144.253 m 7.445 144.253 l 14.543 144.253 m 14.543
 137.151 l 14.543 144.253 m 21.645 144.253 l 75.043 14.55 m 75.043 21.55
 l 75.043 14.55 m 67.945 14.55 l 75.043 14.55 m 75.043 7.452 l 75.043 14.55
 m 82.043 14.55 l 108.543 30.151 m 108.543 37.151 l 108.543 30.151 m 101.445
 30.151 l 108.543 30.151 m 108.543 23.05 l 108.543 30.151 m 115.645 30.151
 l 133.242 151.55 m 133.242 158.651 l 133.242 151.55 m 126.145 151.55 l 
133.242 151.55 m 133.242 144.452 l 133.242 151.55 m 140.344 151.55 l 72.844
 281.35 m 72.844 288.452 l 72.844 281.35 m 65.742 281.35 l 72.844 281.35
 m 72.844 274.253 l 72.844 281.35 m 79.844 281.35 l 48.043 159.85 m 48.043
 166.952 l 48.043 159.85 m 40.945 159.85 l 48.043 159.85 m 48.043 152.753
 l 48.043 159.85 m 55.145 159.85 l 99.742 135.952 m 99.742 143.05 l 99.742
 135.952 m 92.645 135.952 l 99.742 135.952 m 99.742 128.85 l 99.742 135.952
 m 106.844 135.952 l S
0.709 w
18.844 144.253 m 18.742 145.253 l 18.344 146.151 l 17.844 146.952 l 17.145
 147.651 l 16.242 148.151 l 15.344 148.452 l 14.344 148.55 l 13.344 148.35
 l 12.445 147.952 l 11.645 147.35 l 11.043 146.55 l 10.543 145.753 l 10.344
 144.753 l 10.344 143.753 l 10.543 142.85 l 11.043 141.952 l 11.645 141.151
 l 12.445 140.55 l 13.344 140.151 l 14.344 140.05 l 15.344 140.05 l 16.242
 140.35 l 17.145 140.85 l 17.844 141.55 l 18.344 142.35 l 18.742 143.253
 l 18.844 144.253 l 52.344 159.85 m 52.242 160.85 l 51.844 161.753 l 51.344
 162.651 l 50.645 163.253 l 49.742 163.753 l 48.844 164.05 l 47.844 164.151
 l 46.844 163.952 l 45.945 163.55 l 45.145 162.952 l 44.543 162.253 l 44.043
 161.35 l 43.844 160.35 l 43.844 159.35 l 44.043 158.452 l 44.543 157.55
 l 45.145 156.753 l 45.945 156.151 l 46.844 155.753 l 47.844 155.651 l 48.844
 155.651 l 49.742 155.952 l 50.645 156.452 l 51.344 157.151 l 51.844 157.952
 l 52.242 158.85 l 52.344 159.85 l 106.145 123.35 m 104.445 122.651 l 102.742
 122.151 l 100.945 121.85 l 99.145 121.85 l 97.242 122.05 l 95.543 122.452
 l 93.844 123.05 l 92.242 123.952 l 90.742 125.05 l 89.344 126.253 l 88.242
 127.651 l 87.242 129.253 l 86.543 130.952 l 85.945 132.651 l 85.645 134.452
 l 85.543 136.253 l 85.543 136.253 m 57.445 149.253 l 57.445 149.253 m 47.344
 143.253 l 47.344 143.253 m 48.445 141.753 l 49.242 140.151 l 49.844 138.452
 l 50.242 136.651 l 50.344 134.85 l 50.145 133.05 l 49.742 131.253 l 49.145
 129.55 l 48.242 127.952 l 47.043 126.55 l 45.742 125.253 l 44.242 124.253
 l 44.242 124.253 m 64.945 79.952 l 64.945 79.952 m 66.543 80.55 l 68.242
 81.151 l 69.945 81.55 l 71.645 81.753 l 73.344 81.85 l 75.145 81.85 l 76.844
 81.651 l 78.645 81.35 l 78.645 81.35 m 104.242 107.05 l 104.242 107.05 
m 104.742 108.253 l 105.242 109.35 l 105.945 110.452 l 106.742 111.452 l
 107.543 112.35 l 109.543 113.952 l 110.645 114.55 l 110.645 114.55 m 106.145
 123.35 l 90.344 146.55 m 91.844 147.753 l 93.445 148.651 l 95.145 149.35
 l 97.043 149.85 l 98.844 150.151 l 100.742 150.05 l 102.645 149.85 l 104.445
 149.35 l 106.145 148.55 l 107.742 147.651 l 109.242 146.452 l 110.543 145.151
 l 111.645 143.55 l 112.543 141.952 l 112.543 141.952 m 120.445 145.55 l
 120.445 145.55 m 104.844 187.253 l 104.844 187.253 m 77.844 214.253 l 77.844
 214.253 m 76.742 214.151 l 75.645 214.05 l 74.645 213.952 l 72.445 213.952
 l 71.344 214.05 l 70.242 214.253 l 69.242 214.452 l 69.242 214.452 m 43.543
 188.753 l 43.543 188.753 m 43.043 187.651 l 42.543 186.452 l 41.145 184.452
 l 40.242 183.452 l 39.242 182.651 l 38.242 181.952 l 37.145 181.253 l 37.145
 181.253 m 41.645 172.55 l 41.645 172.55 m 43.344 173.253 l 45.043 173.753
 l 46.844 173.952 l 48.742 174.05 l 50.543 173.85 l 52.344 173.35 l 54.043
 172.753 l 55.645 171.85 l 57.043 170.85 l 58.445 169.55 l 59.543 168.151
 l 60.543 166.55 l 61.344 164.952 l 61.844 163.151 l 62.145 161.35 l 62.242
 159.55 l 62.242 159.55 m 90.344 146.55 l 87.445 235.151 m 87.242 236.952
 l 86.945 238.651 l 86.344 240.35 l 85.543 241.952 l 84.645 243.452 l 83.445
 244.753 l 82.145 245.85 l 80.645 246.85 l 79.043 247.651 l 77.445 248.253
 l 75.645 248.55 l 73.945 248.651 l 72.145 248.55 l 70.445 248.253 l 68.742
 247.651 l 67.145 246.85 l 65.645 245.85 l 64.344 244.753 l 63.242 243.452
 l 62.242 241.952 l 61.445 240.35 l 60.844 238.651 l 60.543 236.952 l 60.445
 235.151 l 60.543 233.452 l 60.844 231.651 l 61.445 230.05 l 62.242 228.452
 l 63.242 226.952 l 64.344 225.651 l 65.645 224.452 l 67.145 223.55 l 68.742
 222.753 l 70.445 222.151 l 72.145 221.85 l 73.945 221.651 l 75.645 221.85
 l 77.445 222.151 l 79.043 222.753 l 80.645 223.55 l 82.145 224.452 l 83.445
 225.651 l 84.645 226.952 l 85.543 228.452 l 86.344 230.05 l 86.945 231.651
 l 87.242 233.452 l 87.445 235.151 l 87.445 60.651 m 87.242 62.452 l 86.945
 64.151 l 86.344 65.85 l 85.543 67.35 l 84.645 68.85 l 83.445 70.151 l 82.145
 71.35 l 80.645 72.35 l 79.043 73.151 l 77.445 73.651 l 75.645 74.05 l 73.945
 74.151 l 72.145 74.05 l 70.445 73.651 l 68.742 73.151 l 67.145 72.35 l 
65.645 71.35 l 64.344 70.151 l 63.242 68.85 l 62.242 67.35 l 61.445 65.85
 l 60.844 64.151 l 60.543 62.452 l 60.445 60.651 l 60.543 58.85 l 60.844
 57.151 l 61.445 55.452 l 62.242 53.85 l 63.242 52.452 l 64.344 51.151 l
 65.645 49.952 l 67.145 48.952 l 68.742 48.151 l 70.445 47.651 l 72.145 
47.253 l 73.945 47.151 l 75.645 47.253 l 77.445 47.651 l 79.043 48.151 l
 80.645 48.952 l 82.145 49.952 l 83.445 51.151 l 84.645 52.452 l 85.543 
53.85 l 86.344 55.452 l 86.945 57.151 l 87.242 58.85 l 87.445 60.651 l 122.043
 192.651 m 121.945 193.85 l 121.645 194.952 l 121.043 195.952 l 120.344 
196.753 l 119.445 197.452 l 118.344 197.952 l 117.242 198.253 l 116.145 
198.35 l 115.043 198.151 l 113.945 197.753 l 112.945 197.151 l 112.145 196.35
 l 111.445 195.452 l 111.043 194.35 l 110.742 193.253 l 110.742 192.05 l
 111.043 190.952 l 111.445 189.952 l 112.145 188.952 l 112.945 188.151 l
 113.945 187.55 l 115.043 187.151 l 116.145 187.05 l 117.242 187.05 l 118.344
 187.35 l 119.445 187.85 l 120.344 188.55 l 121.043 189.452 l 121.645 190.452
 l 121.945 191.55 l 122.043 192.651 l 37.043 192.651 m 36.945 193.85 l 36.543
 194.952 l 36.043 195.952 l 35.242 196.753 l 34.344 197.452 l 33.344 197.952
 l 32.242 198.253 l 31.145 198.35 l 29.945 198.151 l 28.844 197.753 l 27.945
 197.151 l 27.043 196.35 l 26.445 195.452 l 25.945 194.35 l 25.742 193.253
 l 25.742 192.05 l 25.945 190.952 l 26.445 189.952 l 27.043 188.952 l 27.945
 188.151 l 28.844 187.55 l 29.945 187.151 l 31.145 187.05 l 32.242 187.05
 l 33.344 187.35 l 34.344 187.85 l 35.242 188.55 l 36.043 189.452 l 36.543
 190.452 l 36.945 191.55 l 37.043 192.651 l 43.242 135.05 m 43.145 136.253
 l 42.844 137.253 l 42.242 138.35 l 41.543 139.151 l 40.543 139.85 l 39.543
 140.35 l 38.445 140.651 l 37.344 140.753 l 36.145 140.55 l 35.145 140.151
 l 34.145 139.55 l 33.242 138.753 l 32.645 137.85 l 32.145 136.753 l 31.945
 135.651 l 31.945 134.452 l 32.145 133.35 l 32.645 132.35 l 33.242 131.35
 l 34.145 130.55 l 35.145 129.952 l 36.145 129.55 l 37.344 129.452 l 38.445
 129.452 l 39.543 129.753 l 40.543 130.253 l 41.543 130.952 l 42.242 131.85
 l 42.844 132.85 l 43.145 133.952 l 43.242 135.05 l 122.043 103.151 m 121.945
 104.35 l 121.645 105.35 l 121.043 106.452 l 120.344 107.253 l 119.445 107.952
 l 118.344 108.452 l 117.242 108.753 l 116.145 108.85 l 115.043 108.651 
l 113.945 108.253 l 112.945 107.651 l 112.145 106.85 l 111.445 105.952 l
 111.043 104.85 l 110.742 103.753 l 110.742 102.55 l 111.043 101.452 l 111.445
 100.452 l 112.145 99.452 l 112.945 98.651 l 113.945 98.05 l 115.043 97.651
 l 116.145 97.452 l 117.242 97.55 l 118.344 97.85 l 119.445 98.35 l 120.344
 99.05 l 121.043 99.952 l 121.645 100.952 l 121.945 102.05 l 122.043 103.151
 l 59.945 275.35 m 52.145 271.753 l 73.145 267.151 m 74.945 267.35 l 76.742
 267.753 l 78.445 268.35 l 80.043 269.151 l 81.543 270.151 l 82.844 271.35
 l 84.043 272.753 l 85.043 274.253 l 85.844 275.85 l 86.445 277.651 l 86.844
 279.35 l 86.945 281.151 l 86.844 283.05 l 86.543 284.753 l 85.945 286.55
 l 85.242 288.151 l 84.242 289.651 l 83.043 291.05 l 81.742 292.35 l 80.242
 293.35 l 78.645 294.253 l 76.945 294.85 l 75.242 295.253 l 73.445 295.452
 l 71.645 295.452 l 69.844 295.151 l 68.043 294.651 l 66.344 293.952 l 64.844
 293.05 l 63.344 291.952 l 62.145 290.651 l 61.043 289.253 l 60.145 287.651
 l 59.445 285.952 l 58.945 284.253 l 58.645 282.452 l 58.645 280.55 l 58.844
 278.753 l 59.242 277.05 l 59.945 275.35 l 73.445 256.452 m 73.145 267.151
 l 88.945 220.151 m 90.445 221.753 l 91.742 223.55 l 92.844 225.452 l 93.742
 227.452 l 94.445 229.55 l 94.844 231.753 l 95.145 233.85 l 95.145 236.05
 l 94.945 238.253 l 94.543 240.452 l 93.844 242.55 l 92.945 244.55 l 91.945
 246.452 l 90.645 248.253 l 89.242 249.952 l 87.645 251.452 l 85.844 252.753
 l 83.945 253.952 l 81.945 254.85 l 79.945 255.55 l 77.742 256.05 l 75.543
 256.35 l 73.445 256.452 l 107.445 201.651 m 88.945 220.151 l 121.242 180.85
 m 122.844 181.651 l 124.242 182.55 l 125.543 183.753 l 126.645 185.05 l
 127.645 186.55 l 128.344 188.151 l 128.844 189.753 l 129.145 191.452 l 
129.145 193.253 l 128.945 194.952 l 128.543 196.651 l 127.945 198.253 l 
127.043 199.753 l 125.945 201.151 l 124.742 202.35 l 123.344 203.35 l 121.844
 204.253 l 120.242 204.85 l 118.543 205.253 l 116.844 205.452 l 115.043 
205.35 l 113.344 205.05 l 111.742 204.55 l 110.145 203.753 l 108.742 202.85
 l 107.445 201.651 l 127.844 164.651 m 121.242 180.85 l 128.543 138.151 
m 130.344 137.651 l 132.145 137.452 l 133.945 137.452 l 135.742 137.651 
l 137.543 138.05 l 139.242 138.753 l 140.844 139.651 l 142.344 140.651 l
 143.645 141.952 l 144.844 143.35 l 145.742 144.952 l 146.543 146.55 l 147.043
 148.35 l 147.344 150.151 l 147.445 151.952 l 147.242 153.753 l 146.844 
155.55 l 146.242 157.253 l 145.344 158.85 l 144.344 160.35 l 143.145 161.753
 l 141.742 162.952 l 140.242 163.952 l 138.543 164.753 l 136.844 165.253
 l 135.043 165.651 l 133.242 165.753 l 131.344 165.651 l 129.645 165.253
 l 127.844 164.651 l 120.645 115.253 m 128.543 138.151 l 107.445 94.151 
m 108.645 93.05 l 110.043 92.05 l 111.645 91.35 l 113.242 90.85 l 114.945
 90.452 l 116.543 90.452 l 118.242 90.55 l 119.945 90.85 l 121.543 91.452
 l 123.043 92.253 l 124.445 93.253 l 125.645 94.35 l 126.742 95.651 l 127.645
 97.151 l 128.344 98.651 l 128.844 100.253 l 129.145 101.952 l 129.145 103.651
 l 128.945 105.35 l 128.543 106.952 l 127.945 108.55 l 127.145 110.05 l 
126.145 111.452 l 124.945 112.651 l 123.645 113.651 l 122.145 114.55 l 120.645
 115.253 l 88.945 75.651 m 107.445 94.151 l 89.844 46.55 m 91.242 48.35 
l 92.445 50.35 l 93.445 52.35 l 94.242 54.55 l 94.844 56.753 l 95.145 59.05
 l 95.145 61.35 l 94.945 63.55 l 94.543 65.85 l 93.844 68.05 l 92.945 70.151
 l 91.844 72.151 l 90.445 73.952 l 88.945 75.651 l 97.844 39.452 m 89.844
 46.55 l 95.645 24.151 m 96.543 22.55 l 97.645 21.05 l 98.844 19.753 l 100.242
 18.55 l 101.742 17.651 l 103.445 16.85 l 105.145 16.35 l 106.945 16.05 
l 108.742 15.952 l 110.543 16.05 l 112.344 16.452 l 114.043 17.05 l 115.645
 17.85 l 117.145 18.85 l 118.543 20.05 l 119.742 21.452 l 120.742 22.952
 l 121.543 24.55 l 122.145 26.35 l 122.543 28.05 l 122.645 29.85 l 122.645
 31.753 l 122.242 33.452 l 121.742 35.253 l 120.945 36.85 l 120.043 38.452
 l 118.844 39.85 l 117.543 41.05 l 116.043 42.151 l 114.445 42.952 l 112.742
 43.651 l 111.043 44.05 l 109.242 44.253 l 107.344 44.253 l 105.645 43.952
 l 103.844 43.452 l 102.145 42.753 l 100.645 41.85 l 99.145 40.753 l 97.844
 39.452 l 87.844 20.452 m 95.645 24.151 l 74.645 28.651 m 72.844 28.55 l
 71.043 28.151 l 69.344 27.55 l 67.742 26.651 l 66.242 25.651 l 64.945 24.452
 l 63.742 23.05 l 62.742 21.55 l 61.945 19.952 l 61.344 18.253 l 60.945 
16.452 l 60.844 14.651 l 60.945 12.85 l 61.242 11.05 l 61.844 9.35 l 62.543
 7.651 l 63.543 6.151 l 64.742 4.753 l 66.043 3.55 l 67.543 2.452 l 69.145
 1.651 l 70.844 0.952 l 72.543 0.55 l 74.445 0.35 l 76.242 0.35 l 78.043
 0.651 l 79.742 1.151 l 81.445 1.85 l 82.945 2.753 l 84.445 3.85 l 85.645
 5.151 l 86.742 6.651 l 87.742 8.151 l 88.445 9.85 l 88.844 11.651 l 89.145
 13.452 l 89.145 15.253 l 88.945 17.05 l 88.543 18.753 l 87.844 20.452 l
 74.445 39.35 m 74.645 28.651 l 56.043 72.151 m 54.945 70.253 l 54.043 68.253
 l 53.344 66.151 l 52.945 64.05 l 52.645 61.85 l 52.645 59.651 l 52.844 
57.452 l 53.344 55.35 l 53.945 53.253 l 54.844 51.253 l 55.945 49.253 l 
57.145 47.55 l 58.645 45.85 l 60.242 44.35 l 61.945 43.05 l 63.844 41.952
 l 65.844 40.952 l 67.945 40.253 l 70.043 39.753 l 72.242 39.452 l 74.445
 39.35 l 32.043 123.55 m 56.043 72.151 l 17.742 130.452 m 32.043 123.55 
l 19.242 157.651 m 17.445 158.151 l 15.645 158.35 l 13.844 158.452 l 12.043
 158.253 l 10.344 157.753 l 8.645 157.151 l 7.043 156.253 l 5.543 155.253
 l 4.242 153.952 l 3.145 152.651 l 2.145 151.05 l 1.344 149.452 l 0.844 
147.753 l 0.445 145.952 l 0.344 144.151 l 0.543 142.35 l 0.844 140.55 l 
1.445 138.85 l 2.242 137.253 l 3.242 135.753 l 4.445 134.35 l 5.742 133.151
 l 7.242 132.151 l 8.844 131.253 l 10.543 130.651 l 12.344 130.253 l 14.145
 130.05 l 15.945 130.151 l 17.742 130.452 l 27.242 180.651 m 19.242 157.651
 l 40.445 201.651 m 39.145 202.85 l 37.742 203.753 l 36.145 204.452 l 34.543
 205.05 l 32.945 205.35 l 31.242 205.452 l 29.543 205.253 l 27.844 204.952
 l 26.242 204.35 l 24.742 203.55 l 23.344 202.651 l 22.145 201.452 l 21.043
 200.151 l 20.145 198.753 l 19.445 197.151 l 18.945 195.55 l 18.645 193.85
 l 18.645 192.151 l 18.844 190.452 l 19.242 188.85 l 19.844 187.253 l 20.645
 185.753 l 21.645 184.452 l 22.844 183.151 l 24.145 182.151 l 25.645 181.253
 l 27.242 180.651 l 58.844 220.151 m 40.445 201.651 l 57.945 249.253 m 56.543
 247.452 l 55.344 245.55 l 54.344 243.452 l 53.543 241.35 l 53.043 239.05
 l 52.742 236.85 l 52.645 234.55 l 52.844 232.253 l 53.242 229.952 l 53.945
 227.85 l 54.844 225.753 l 56.043 223.753 l 57.344 221.85 l 58.844 220.151
 l 49.945 256.35 m 57.945 249.253 l 52.145 271.753 m 51.242 273.253 l 50.242
 274.753 l 48.945 276.05 l 47.543 277.253 l 46.043 278.151 l 44.344 278.952
 l 42.645 279.452 l 40.844 279.85 l 39.043 279.85 l 37.242 279.753 l 35.445
 279.35 l 33.742 278.753 l 32.145 277.952 l 30.645 276.952 l 29.242 275.753
 l 28.043 274.35 l 27.043 272.85 l 26.242 271.253 l 25.645 269.55 l 25.242
 267.753 l 25.145 265.952 l 25.242 264.151 l 25.543 262.35 l 26.043 260.651
 l 26.844 258.952 l 27.844 257.452 l 28.945 256.05 l 30.242 254.753 l 31.742
 253.753 l 33.344 252.85 l 35.043 252.253 l 36.844 251.753 l 38.645 251.55
 l 40.445 251.55 l 42.242 251.85 l 43.945 252.35 l 45.645 253.05 l 47.242
 253.952 l 48.645 255.05 l 49.945 256.35 l 79.242 14.55 m 79.145 15.452 
l 78.844 16.452 l 78.242 17.253 l 77.543 17.952 l 76.645 18.452 l 75.742
 18.651 l 74.742 18.753 l 73.742 18.55 l 72.844 18.151 l 72.043 17.55 l 
71.445 16.85 l 71.043 15.952 l 70.742 14.952 l 70.742 14.05 l 71.043 13.05
 l 71.445 12.151 l 72.043 11.452 l 72.844 10.85 l 73.742 10.452 l 74.742
 10.253 l 75.742 10.35 l 76.645 10.55 l 77.543 11.05 l 78.242 11.753 l 78.844
 12.55 l 79.145 13.55 l 79.242 14.55 l 112.742 30.151 m 112.645 31.05 l 
112.344 32.05 l 111.742 32.85 l 111.043 33.55 l 110.242 34.05 l 109.242 
34.253 l 108.242 34.35 l 107.344 34.151 l 106.344 33.753 l 105.645 33.253
 l 104.945 32.452 l 104.543 31.55 l 104.242 30.651 l 104.242 29.651 l 104.543
 28.651 l 104.945 27.753 l 105.645 27.05 l 106.344 26.452 l 107.344 26.05
 l 108.242 25.85 l 109.242 25.952 l 110.242 26.253 l 111.043 26.651 l 111.742
 27.35 l 112.344 28.151 l 112.645 29.151 l 112.742 30.151 l 77.043 281.35
 m 76.945 282.35 l 76.645 283.253 l 76.043 284.05 l 75.344 284.753 l 74.445
 285.253 l 73.543 285.55 l 72.543 285.55 l 71.543 285.452 l 70.645 285.05
 l 69.844 284.452 l 69.242 283.651 l 68.844 282.753 l 68.543 281.85 l 68.543
 280.85 l 68.844 279.85 l 69.242 278.952 l 69.844 278.253 l 70.645 277.651
 l 71.543 277.253 l 72.543 277.05 l 73.543 277.151 l 74.445 277.452 l 75.344
 277.952 l 76.043 278.55 l 76.645 279.452 l 76.945 280.35 l 77.043 281.35
 l 43.543 265.753 m 43.445 266.753 l 43.043 267.651 l 42.543 268.452 l 41.844
 269.151 l 40.945 269.651 l 40.043 269.952 l 39.043 269.952 l 38.043 269.753
 l 37.145 269.452 l 36.344 268.85 l 35.742 268.05 l 35.344 267.151 l 35.043
 266.253 l 35.043 265.253 l 35.344 264.253 l 35.742 263.35 l 36.344 262.651
 l 37.145 262.05 l 38.043 261.651 l 39.043 261.452 l 40.043 261.55 l 40.945
 261.85 l 41.844 262.35 l 42.543 262.952 l 43.043 263.85 l 43.445 264.753
 l 43.543 265.753 l 137.543 151.55 m 137.344 152.55 l 137.043 153.452 l 
136.543 154.35 l 135.742 154.952 l 134.945 155.452 l 133.945 155.753 l 133.043
 155.85 l 132.043 155.651 l 131.145 155.253 l 130.344 154.651 l 129.645 
153.952 l 129.242 153.05 l 129.043 152.05 l 129.043 151.05 l 129.242 150.151
 l 129.645 149.253 l 130.344 148.452 l 131.145 147.85 l 132.043 147.452 
l 133.043 147.35 l 133.945 147.35 l 134.945 147.651 l 135.742 148.151 l 
136.543 148.85 l 137.043 149.651 l 137.344 150.55 l 137.543 151.55 l 103.945
 135.952 m 103.844 136.952 l 103.543 137.85 l 102.945 138.651 l 102.242 
139.35 l 101.445 139.85 l 100.445 140.151 l 99.445 140.253 l 98.543 140.05
 l 97.645 139.651 l 96.844 139.05 l 96.145 138.253 l 95.742 137.452 l 95.543
 136.452 l 95.543 135.452 l 95.742 134.55 l 96.145 133.651 l 96.844 132.85
 l 97.645 132.253 l 98.543 131.85 l 99.445 131.753 l 100.445 131.753 l 101.445
 132.05 l 102.242 132.55 l 102.945 133.253 l 103.543 134.05 l 103.844 134.952
 l 103.945 135.952 l 119.242 192.651 m 119.145 191.85 l 118.844 191.151 
l 118.242 190.55 l 117.645 190.05 l 116.844 189.85 l 116.043 189.85 l 115.242
 190.05 l 114.543 190.55 l 114.043 191.151 l 113.742 191.85 l 113.543 192.651
 l 113.742 193.452 l 114.043 194.253 l 114.543 194.85 l 115.242 195.253 
l 116.043 195.452 l 116.844 195.452 l 117.645 195.253 l 118.242 194.85 l
 118.844 194.253 l 119.145 193.452 l 119.242 192.651 l 34.242 192.651 m 
34.145 191.85 l 33.742 191.151 l 33.242 190.55 l 32.543 190.05 l 31.742 
189.85 l 30.945 189.85 l 30.242 190.05 l 29.543 190.55 l 29.043 191.151 
l 28.645 191.85 l 28.543 192.651 l 28.645 193.452 l 29.043 194.253 l 29.543
 194.85 l 30.242 195.253 l 30.945 195.452 l 31.742 195.452 l 32.543 195.253
 l 33.242 194.85 l 33.742 194.253 l 34.145 193.452 l 34.242 192.651 l 40.445
 135.05 m 40.344 134.253 l 39.945 133.55 l 39.445 132.952 l 38.742 132.452
 l 38.043 132.253 l 37.145 132.253 l 36.445 132.452 l 35.742 132.952 l 35.242
 133.55 l 34.844 134.253 l 34.742 135.05 l 34.844 135.85 l 35.242 136.55
 l 35.742 137.253 l 36.445 137.651 l 37.145 137.85 l 38.043 137.85 l 38.742
 137.651 l 39.445 137.253 l 39.945 136.55 l 40.344 135.85 l 40.445 135.05
 l 119.242 103.151 m 119.145 102.35 l 118.844 101.651 l 118.242 101.05 l
 117.645 100.55 l 116.844 100.35 l 116.043 100.35 l 115.242 100.55 l 114.543
 101.05 l 114.043 101.651 l 113.742 102.35 l 113.543 103.151 l 113.742 103.952
 l 114.043 104.651 l 114.543 105.35 l 115.242 105.753 l 116.043 105.952 
l 116.844 105.952 l 117.645 105.753 l 118.242 105.35 l 118.844 104.651 l
 119.145 103.952 l 119.242 103.151 l 83.844 235.151 m 83.742 233.651 l 83.344
 232.151 l 82.742 230.753 l 82.043 229.452 l 81.043 228.35 l 79.945 227.253
 l 78.645 226.452 l 77.242 225.85 l 75.742 225.452 l 74.242 225.253 l 72.742
 225.35 l 71.242 225.651 l 69.844 226.151 l 68.543 226.85 l 67.344 227.753
 l 66.242 228.85 l 65.344 230.151 l 64.742 231.452 l 64.242 232.952 l 64.043
 234.452 l 64.043 235.952 l 64.242 237.452 l 64.742 238.85 l 65.344 240.253
 l 66.242 241.55 l 67.344 242.55 l 68.543 243.55 l 69.844 244.253 l 71.242
 244.753 l 72.742 245.05 l 74.242 245.151 l 75.742 244.952 l 77.242 244.55
 l 78.645 243.952 l 79.945 243.05 l 81.043 242.05 l 82.043 240.85 l 82.742
 239.55 l 83.344 238.151 l 83.742 236.753 l 83.844 235.151 l 83.844 60.651
 m 83.742 59.151 l 83.344 57.651 l 82.742 56.253 l 82.043 54.952 l 81.043
 53.753 l 79.945 52.753 l 78.645 51.952 l 77.242 51.35 l 75.742 50.952 l
 74.242 50.753 l 72.742 50.753 l 71.242 51.05 l 69.844 51.55 l 68.543 52.35
 l 67.344 53.253 l 66.242 54.35 l 65.344 55.55 l 64.742 56.952 l 64.242 
58.35 l 64.043 59.85 l 64.043 61.452 l 64.242 62.952 l 64.742 64.35 l 65.344
 65.753 l 66.242 66.952 l 67.344 68.05 l 68.543 68.952 l 69.844 69.651 l
 71.242 70.253 l 72.742 70.452 l 74.242 70.55 l 75.742 70.35 l 77.242 69.952
 l 78.645 69.35 l 79.945 68.55 l 81.043 67.55 l 82.043 66.35 l 82.742 65.05
 l 83.344 63.651 l 83.742 62.151 l 83.844 60.651 l S
Q Q
showpage
%%Trailer
end restore
%%EOF
